﻿クボモン名,フォルム名,固有ID,図鑑番号,タイプ1(数字),タイプ2(数字),H,A,B,C,D,S,特性名1,特性名2,特性名3
フシギダネ,,0,1,5,8,45,49,49,65,65,45,しんりょく,ようりょくそ,
ガブリアス,,1,445,15,9,108,130,95,80,85,102,すながくれ,さめはだ,
ジラーチ,アローラのすがた,2,385,17,11,100,100,100,100,100,100,てんのめぐみ,,
