﻿0,なぞのばしょ, 
1,コノハ,木葉
2,ギョクトウ,玉東町
3,タマナ,玉名市
4,ナガス,長洲町
5,アラオ,荒尾市
6,ナンカン,南関町
7,ミカワ,三加和
8,キクスイ,菊水
9,ウエキ,植木町
10,タバル,田原坂
11,クボモンリーグ,???
12,アマクサ,天草市
50,マンダコウ,万田炭鉱
51,ツツガタケ,筒ヶ岳
52,タバルザカ,田原坂
53,ショウダイヤマ,小岱山
54,クボモンロード,???
55,リュウドウザン,竜洞山
100,シンカイ,がんばる市場しんかい君
101,海底遺跡(キンギョ),???
102,サファリゾーン,???
103,迷宮トンカラリン,トンカラリン
104,シンアイセンター,---
105,バトルタワー,???
150,208ばんどうろ,国道208号線
151,501ばんどうろ,国道501号線
152,389ばんどうろ,国道389号線
153,314ばんどうろ,県道314号線
154,443ばんどうろ,国道443号線
155,16ばんどうろ,県道16号線
156,3ばんどうろ,県道3号線
157,ショウダイサンさんどう(仮),???
158,クボモンロードへのみち(仮),???
159,リュウドウサンへのみち(仮),???
160,バトルタワーへのみち(仮),???
161,迷宮トンカラリンへのみち(仮),???
162,海底遺跡(キンギョ)へのみち(仮),???
