001,001,224,224,224,224,224,224,224,224,224,224,224,224,224,224,224,224,224,224,224,224,224,224,001,001,001,001,001,001,001,001
001,001,224,224,224,224,224,224,224,224,224,224,224,224,224,224,224,224,224,224,224,224,224,224,001,001,001,001,001,001,001,001
001,001,224,224,224,224,224,224,224,224,224,224,224,224,224,224,224,224,224,224,224,224,224,224,001,001,001,001,001,001,001,001
001,001,224,224,224,224,224,224,224,224,224,224,224,224,224,224,224,224,224,224,224,224,224,224,001,001,001,001,001,001,001,001
001,001,224,224,224,224,224,224,224,224,224,224,224,224,224,224,224,224,224,224,224,224,224,224,001,001,001,001,001,001,008,008
001,001,224,224,224,224,224,224,224,224,224,224,224,224,224,224,224,224,224,224,224,224,224,224,001,001,001,001,008,008,008,008
001,001,224,224,224,224,224,224,224,224,224,224,224,224,224,224,224,224,224,224,224,224,224,224,001,001,001,001,008,008,008,008
001,001,224,224,224,224,224,224,224,224,224,224,224,224,224,224,224,224,224,224,224,224,224,224,001,001,001,001,008,008,008,008
001,001,224,224,224,224,224,224,224,224,224,224,224,224,224,224,224,224,224,224,224,224,224,224,001,001,001,001,008,008,008,008
001,001,224,224,224,224,224,224,224,224,224,224,224,224,224,224,224,224,224,224,224,224,224,224,001,001,001,001,008,008,008,008
001,001,224,224,224,224,224,224,224,224,224,224,224,224,224,224,224,224,224,224,224,224,224,224,001,001,001,001,008,008,008,008
001,001,224,224,224,224,224,224,224,224,224,224,224,224,224,224,224,224,224,224,224,224,224,224,001,001,008,008,008,008,008,008
001,001,224,224,224,224,224,224,224,224,224,224,224,224,224,224,224,224,224,224,224,224,224,224,001,001,008,008,008,008,008,008
001,001,224,224,224,224,224,224,224,224,224,224,224,224,224,224,224,224,224,224,224,224,224,224,001,001,008,008,008,008,008,008
001,001,224,224,224,224,224,224,224,224,224,224,224,224,224,224,224,224,224,224,224,224,224,224,001,001,008,008,008,008,008,008
001,001,224,224,224,224,224,224,224,224,224,224,224,224,224,224,224,224,001,001,001,001,001,001,001,001,008,008,008,008,008,008
001,001,224,224,224,224,224,224,224,224,224,224,224,224,224,224,224,224,001,001,001,001,001,001,001,001,008,008,008,008,008,008
001,001,224,224,224,224,224,224,224,224,224,224,224,224,224,224,224,224,001,001,001,001,001,001,008,008,008,008,008,008,008,008
001,001,224,224,224,224,224,224,224,224,224,224,224,224,224,224,224,224,001,001,001,001,001,001,008,008,008,008,008,008,008,008
224,224,224,224,224,224,224,224,224,224,224,224,224,224,224,224,224,224,001,001,001,001,001,001,008,008,008,008,008,008,008,008
224,224,224,224,224,224,224,224,224,224,224,224,224,224,224,224,224,224,001,001,001,001,001,001,008,008,008,008,008,008,008,008
224,224,224,224,224,224,224,224,224,224,224,224,224,224,224,224,224,224,001,001,001,001,001,001,008,008,008,008,008,008,008,008
224,224,224,224,224,224,224,224,224,224,224,224,224,224,224,224,224,224,001,001,001,001,008,008,008,008,008,008,008,008,008,008
224,224,224,224,224,224,224,224,224,224,224,224,224,224,224,224,224,224,001,001,001,001,008,008,008,008,008,008,008,008,008,008
224,224,224,224,224,224,224,224,224,224,224,224,224,224,224,224,224,224,001,001,001,001,008,008,008,008,008,008,008,008,008,008
224,224,224,224,224,224,224,224,224,224,224,224,224,224,224,224,224,224,001,001,008,008,008,008,008,008,008,008,008,008,008,008
224,224,224,224,224,224,224,224,224,224,224,224,224,224,224,224,224,224,001,001,008,008,008,008,008,008,008,008,008,008,008,008
224,224,224,224,224,224,224,224,224,224,224,224,224,224,224,224,224,224,001,001,008,008,008,008,008,008,008,008,008,008,008,008
224,224,224,224,224,224,224,224,224,224,224,224,224,224,224,224,224,224,001,001,008,008,008,008,008,008,008,008,008,008,008,008
224,224,224,224,224,224,224,224,224,224,224,224,224,224,224,224,224,224,001,001,008,008,008,008,008,008,008,008,008,008,008,008
224,224,224,224,224,224,224,224,224,224,224,224,224,224,224,224,224,224,001,001,008,008,008,008,008,008,008,008,008,008,008,008
224,224,224,224,224,224,224,224,224,224,224,224,224,224,224,224,224,224,001,001,008,008,008,008,008,008,008,008,008,008,008,008
