682,682,682,682,683,001,001,001,001,001,001,001,001,001,001,001,001,001,001,001,001,001,001,001,001,001,001,001,001,001,001,001
682,682,682,682,683,001,001,001,001,001,001,001,001,001,001,001,001,001,001,001,001,001,001,001,001,001,001,001,001,001,001,001
682,682,682,682,683,001,001,001,001,001,001,001,001,001,001,001,001,001,001,001,001,001,001,001,001,001,001,001,001,001,001,001
682,682,682,682,683,001,001,001,001,001,001,001,001,001,001,001,001,001,001,001,001,001,001,001,001,001,001,001,001,001,001,001
682,682,682,682,683,001,001,001,001,001,001,001,001,001,001,001,001,001,001,001,001,001,001,001,001,001,001,001,001,001,001,001
682,682,682,682,683,001,001,001,001,001,001,001,001,001,001,001,001,001,001,001,001,001,001,001,001,002,001,001,001,001,001,001
682,682,682,682,683,001,001,001,001,001,001,001,001,001,001,001,001,001,001,001,001,001,001,033,003,002,066,001,001,001,001,001
682,682,682,682,683,001,001,001,001,002,001,001,001,001,001,001,001,001,001,001,001,001,064,002,002,002,066,001,001,001,001,001
682,682,682,682,683,001,001,001,064,002,004,033,033,033,033,001,001,001,001,001,001,001,064,002,002,002,066,001,001,001,001,001
682,682,682,682,683,001,001,001,064,002,002,002,002,002,002,066,001,002,001,001,001,001,064,002,002,036,001,001,001,001,001,001
682,682,682,682,683,001,001,001,064,002,002,002,002,002,002,004,003,002,004,033,033,033,003,002,002,066,001,001,001,001,001,001
682,682,682,682,683,001,001,001,001,097,097,097,035,002,002,002,002,002,002,002,002,002,002,002,002,066,001,001,001,001,001,001
682,682,682,682,683,001,001,001,001,001,001,001,064,002,002,002,002,002,002,002,002,002,002,002,002,066,001,001,001,001,001,001
682,682,682,682,683,001,001,001,001,001,001,001,001,097,097,035,002,002,036,097,097,097,097,097,097,001,001,001,001,001,001,001
682,682,682,682,683,001,001,001,001,001,001,001,001,001,001,064,002,002,066,001,001,001,001,001,001,001,001,001,001,001,001,001
682,682,682,682,683,001,001,001,001,001,001,002,001,001,001,064,002,002,066,001,001,001,001,002,001,001,001,001,001,001,001,001
682,682,682,682,683,001,001,001,001,001,064,002,004,033,033,003,002,002,004,033,033,033,003,002,066,001,001,001,001,001,001,001
714,714,714,714,715,001,001,001,001,001,064,002,002,002,002,002,002,002,002,002,002,002,002,002,066,001,001,001,001,001,001,001
001,001,001,001,001,001,001,001,001,001,064,002,002,002,002,002,002,002,002,002,002,002,002,002,066,001,001,001,001,001,001,001
001,001,001,001,001,001,001,001,001,001,001,097,097,097,097,097,097,097,097,097,097,097,097,097,001,001,001,001,001,001,001,001
001,001,001,001,001,001,001,001,001,001,001,001,001,001,001,001,001,001,001,001,001,001,001,001,001,001,001,001,001,001,001,001
224,224,224,224,224,224,224,224,224,224,224,224,224,224,224,224,224,224,001,001,001,001,001,001,001,001,001,001,001,001,001,001
224,224,224,224,224,224,224,224,224,224,224,224,224,224,224,224,224,224,001,001,001,001,001,001,001,001,001,001,001,001,001,001
224,224,224,224,224,224,224,224,224,224,224,224,224,224,224,224,224,224,001,001,001,001,001,001,001,001,001,001,001,001,001,001
224,224,224,224,224,224,224,224,224,224,224,224,001,001,001,224,224,224,001,001,001,001,001,001,001,001,001,001,001,001,001,001
224,224,224,224,224,224,224,224,224,224,224,224,001,001,001,224,224,224,001,001,001,001,001,001,001,001,001,001,001,001,001,001
224,224,224,224,224,224,224,224,224,224,224,224,224,224,224,224,224,224,001,001,001,001,001,001,001,001,001,001,001,001,001,001
224,224,224,224,224,224,224,224,224,224,224,224,224,224,224,224,224,224,001,001,001,001,001,001,001,001,001,001,001,001,001,001
224,224,224,224,224,224,224,224,224,224,224,224,224,224,224,224,224,224,001,001,001,001,001,001,001,001,001,001,001,001,001,001
001,001,001,001,001,001,001,001,001,001,001,001,001,001,001,001,001,001,001,001,001,001,001,001,001,001,001,001,001,001,001,001
001,001,001,001,001,001,001,001,001,001,001,001,001,001,001,001,001,001,001,001,001,001,001,001,001,001,001,001,001,001,001,001
001,001,001,001,001,001,001,001,001,001,001,001,001,001,001,001,001,001,001,001,001,001,001,001,001,001,001,001,001,001,001,001
