526,527,617,618,618,618,618,618,618,618,618,618,618,619,000,000,000,000,000,617,618,618,618,618,618,618,618,618,618,619,526,527
558,559,000,000,000,000,000,000,000,000,000,000,000,000,000,000,000,000,000,000,000,000,000,000,000,000,000,000,000,000,558,559
558,559,000,000,000,000,000,000,000,000,000,000,000,000,000,000,000,000,000,000,000,000,000,000,000,000,000,000,000,000,558,559
558,559,000,1245,1246,1246,1246,1247,000,000,000,000,000,000,1083,1084,1085,1086,1087,000,000,000,1245,1246,1246,1246,1246,1247,000,000,558,559
558,559,000,1277,000,000,000,1279,000,000,000,000,000,000,000,000,000,000,000,000,000,000,1277,000,000,000,000,1279,000,000,558,559
558,559,000,1277,000,000,000,1279,000,000,000,000,000,000,000,000,000,000,000,000,000,000,1277,000,000,000,000,1279,000,000,558,559
558,559,000,1309,1310,1310,1310,1311,000,000,1245,1246,1246,1246,1247,000,000,000,000,000,000,000,1309,1310,1310,1310,1310,1311,000,000,558,559
558,559,000,000,000,000,000,000,000,000,1277,000,000,000,1279,000,000,000,000,000,000,000,000,000,000,000,000,000,000,000,558,559
558,559,000,000,000,000,000,000,000,000,1277,000,000,000,1279,000,000,000,000,000,000,000,000,000,000,000,000,000,000,000,558,559
558,559,000,000,000,000,000,000,000,000,1309,1310,1310,1310,1311,000,000,000,000,000,000,000,000,000,000,000,000,000,000,000,558,559
556,557,000,000,000,000,000,000,000,000,000,000,000,000,000,000,000,000,000,000,000,000,000,000,000,000,000,000,000,000,558,559
588,589,1310,1310,1310,1310,1310,1310,1310,1310,1310,1310,1310,1310,1310,1214,000,000,1215,1310,1310,1310,1310,1310,1310,1310,1310,1310,1310,1310,558,559
000,000,000,000,000,000,000,000,000,000,000,000,000,000,000,000,000,000,000,000,000,000,000,000,000,000,000,000,000,000,558,559
000,000,000,000,000,000,000,000,000,000,000,000,000,000,000,000,000,000,000,000,000,000,000,000,000,000,000,000,000,000,558,559
000,000,000,000,000,000,000,000,000,000,000,000,000,000,000,000,000,000,000,000,000,000,000,000,000,000,000,000,000,000,558,559
000,000,000,000,000,000,000,000,000,000,000,000,000,000,000,000,000,000,000,000,000,000,000,000,000,000,000,000,000,000,558,559
000,000,000,000,000,000,000,000,000,000,964,965,966,967,000,000,000,000,000,000,000,000,000,000,000,000,000,000,000,000,558,559
000,000,000,000,000,000,000,000,000,000,996,997,998,999,000,000,000,000,000,000,000,000,000,000,000,000,000,000,000,000,558,559
000,000,000,000,000,000,000,000,000,000,1028,1029,1030,1031,000,000,000,000,000,000,000,000,000,000,000,000,000,000,000,000,558,559
000,000,000,000,000,000,000,000,000,000,000,000,000,000,000,000,000,000,000,948,949,950,000,000,000,000,955,956,957,000,558,559
000,000,000,000,000,000,000,000,000,000,000,000,000,000,000,000,000,000,000,980,981,982,983,984,985,986,000,000,000,000,558,559
000,000,000,000,000,000,000,000,000,000,000,000,000,000,000,000,000,000,000,000,000,000,1015,1016,1017,1018,000,000,000,000,558,559
000,000,000,000,000,000,000,000,000,000,000,000,000,000,000,000,000,000,000,000,000,000,000,000,000,000,000,000,000,000,558,559
000,000,000,000,000,000,000,000,000,000,000,000,000,000,000,000,000,000,000,000,000,000,000,000,000,000,000,000,000,000,558,559
000,000,000,000,000,000,000,000,000,000,000,000,000,000,000,000,000,000,000,1056,1057,000,000,000,000,000,000,000,000,000,558,559
000,000,000,000,000,000,000,000,000,000,000,000,000,000,000,000,000,000,000,1088,1089,1090,1091,000,000,000,000,000,000,000,558,559
000,000,000,000,000,000,000,000,000,000,000,000,000,000,000,000,000,000,000,1120,1121,1122,1123,000,000,000,000,000,000,000,558,559
000,000,000,000,1741,1742,1743,1744,1745,1746,000,000,000,000,000,000,000,000,000,1152,1153,1154,1155,941,942,943,944,945,946,000,558,559
000,000,000,000,000,000,000,000,000,000,000,000,000,000,000,000,000,000,000,000,000,000,000,000,000,000,000,000,000,000,558,559
000,000,000,000,000,000,000,000,000,000,000,000,000,000,000,000,000,000,000,000,000,000,000,000,000,000,000,000,000,000,558,559
000,000,000,000,000,000,000,000,000,000,000,000,000,000,000,000,000,000,000,000,000,000,000,000,000,000,000,000,000,000,558,559
558,559,526,527,526,527,526,527,526,527,526,527,526,527,000,000,000,000,526,527,526,527,526,527,526,527,526,527,526,527,526,527
