572,572,572,572,608,608,608,608,608,000,000,000,000,000,000,000,000,000,000,000,000,000,000,000,000,000,000,000,570,570,570,570
572,572,572,572,608,608,608,608,608,000,000,000,000,000,000,000,000,000,000,000,000,000,000,000,000,000,000,000,570,570,570,570
572,572,572,572,608,608,608,608,608,000,000,000,000,000,000,000,000,000,000,000,000,000,000,000,000,000,000,000,570,570,570,570
572,572,572,572,608,608,608,608,608,000,000,000,000,000,000,000,000,000,000,000,000,000,000,000,000,000,000,000,570,570,570,570
572,572,572,572,608,608,608,608,608,000,000,000,000,000,000,000,000,000,000,000,000,000,000,000,000,000,000,000,570,570,570,570
572,572,572,572,608,608,608,608,608,000,000,000,000,000,000,000,000,000,000,000,000,000,000,000,000,000,000,000,570,570,570,570
572,572,572,572,608,608,608,608,608,000,000,000,000,000,000,000,000,000,000,000,000,000,000,000,000,000,000,000,570,570,570,570
572,572,572,572,608,608,608,608,608,000,000,000,000,000,000,000,000,000,000,000,000,000,000,000,000,000,000,000,570,570,570,570
572,572,572,572,608,608,608,608,608,000,000,000,000,000,000,000,000,000,000,000,000,000,000,000,000,000,000,000,570,570,570,570
572,572,572,572,608,608,608,608,608,000,000,000,000,000,000,000,000,000,000,000,000,000,608,608,608,608,538,539,465,570,570,570
572,572,572,572,608,608,608,608,608,000,000,000,000,000,000,000,000,000,000,000,000,000,608,608,608,608,570,538,539,465,570,570
572,572,572,572,608,608,608,608,608,000,000,000,000,000,000,000,000,000,000,000,000,000,608,608,608,608,570,570,538,539,465,570
572,572,572,572,608,608,608,608,608,000,000,000,000,000,000,000,000,000,000,000,000,000,608,608,608,608,570,570,570,538,539,465
572,572,572,572,608,608,608,608,608,000,000,000,000,000,000,000,000,000,000,000,000,000,608,608,608,608,570,570,570,570,000,000
572,572,572,572,608,608,608,608,608,000,000,000,000,000,000,000,000,000,000,000,000,000,608,608,608,608,570,570,570,602,603,471
572,572,572,572,608,608,608,608,608,000,000,000,000,000,000,000,000,000,000,000,000,000,608,608,608,608,570,570,602,603,471,570
572,572,572,572,608,608,608,608,608,000,000,000,000,000,000,000,000,000,000,000,000,000,608,608,608,608,570,602,603,471,570,570
572,572,572,572,608,608,608,608,608,000,000,000,000,000,000,000,000,000,000,000,000,000,608,608,608,608,602,603,471,570,570,570
572,572,572,572,608,608,608,608,608,000,000,000,000,000,000,000,000,000,000,000,000,000,000,000,000,000,000,000,570,570,570,570
572,572,572,463,539,539,539,540,000,000,000,000,000,000,000,000,000,000,000,000,000,000,000,000,000,000,000,000,570,570,570,570
572,572,463,539,540,000,000,572,000,000,000,000,000,000,000,000,000,000,000,000,000,000,000,000,000,000,000,000,570,570,570,570
572,463,539,540,572,000,000,572,000,000,000,000,000,000,000,000,000,000,000,000,000,000,000,000,000,000,000,000,570,570,570,570
463,539,540,572,572,000,000,572,000,000,000,000,000,000,000,000,000,000,000,000,000,000,000,000,000,000,000,000,570,570,570,570
000,000,572,572,572,000,000,572,000,000,000,000,000,000,000,000,000,000,000,000,000,000,000,000,000,000,000,000,570,570,570,570
000,000,572,572,572,000,000,572,000,000,000,000,000,000,000,000,000,000,000,000,000,000,000,000,000,000,000,000,570,570,570,570
469,603,604,572,572,000,000,572,000,000,000,000,000,000,000,000,000,000,000,000,000,000,000,000,000,000,000,000,570,570,570,570
572,469,603,604,572,000,000,572,000,000,000,000,000,000,000,000,000,000,000,000,000,000,000,000,000,000,000,000,570,570,570,570
572,572,469,603,604,000,000,572,000,000,000,000,000,000,000,000,000,000,000,000,000,000,608,608,608,608,608,608,570,570,570,570
572,572,572,469,603,603,603,604,000,000,000,000,000,000,000,000,000,000,000,000,000,000,608,608,608,608,608,608,570,570,570,570
572,572,572,572,000,000,000,000,000,000,000,000,000,000,000,000,000,000,000,000,000,000,608,608,608,608,608,608,570,570,570,570
572,572,572,572,000,000,000,000,000,000,000,000,000,000,000,000,000,000,000,000,000,000,608,608,608,608,608,608,570,570,570,570
572,572,572,572,000,000,000,000,000,000,000,000,000,000,000,000,000,000,000,000,000,000,608,608,608,608,608,608,570,570,570,570
