558,559,1279,608,608,608,608,608,608,608,1279,477,477,445,446,446,446,447,443,510,510,510,510,510,510,510,510,510,510,510,510,444
558,559,1309,1310,1310,1310,1310,1310,1310,1310,1311,477,477,477,000,000,000,479,479,538,539,539,540,000,000,000,608,608,608,608,608,477
558,559,445,446,446,446,446,446,446,446,446,476,477,477,000,000,000,479,479,570,571,571,572,000,000,000,608,608,608,608,608,477
558,559,477,000,000,000,000,000,000,000,000,000,477,477,000,000,000,479,479,570,571,571,572,000,000,000,608,608,608,608,608,477
558,559,477,000,000,000,000,000,000,000,000,000,477,477,000,000,000,479,479,570,571,571,572,000,000,000,608,608,608,608,608,477
558,559,477,000,000,000,000,000,000,000,000,000,477,477,000,000,000,479,479,570,571,571,572,000,000,000,608,608,608,608,608,477
558,559,477,000,000,000,000,000,000,000,000,000,724,724,000,000,000,479,479,570,571,571,572,000,445,446,446,446,446,446,446,476
558,559,477,000,000,000,000,000,000,000,000,000,756,756,000,000,000,479,479,602,603,603,604,000,477,445,446,446,446,446,446,446
558,559,477,000,000,000,000,000,000,000,000,000,788,788,000,000,000,479,479,000,000,000,000,000,477,477,000,000,000,000,000,000
558,559,477,000,000,000,000,000,000,000,000,000,477,477,000,000,000,479,479,000,000,000,000,000,477,477,000,000,000,000,000,000
558,559,477,000,000,000,000,000,000,000,000,000,477,477,000,000,000,725,725,000,000,000,000,000,477,477,000,000,000,000,000,000
558,559,477,608,608,608,608,608,608,000,000,000,477,477,000,000,000,757,757,000,000,000,000,000,477,477,000,000,000,000,000,000
558,559,477,608,608,608,608,608,608,000,000,000,477,477,000,000,000,789,789,000,000,000,000,000,477,477,000,000,000,000,000,000
558,559,477,608,608,608,608,608,608,000,000,000,477,477,000,000,000,479,475,446,446,446,446,446,476,509,510,733,734,735,510,444
558,559,477,608,608,608,608,608,608,000,000,000,477,477,000,000,000,475,446,446,446,446,446,447,000,000,000,000,000,000,000,477
558,559,477,608,608,608,608,608,608,000,000,000,477,477,000,000,000,608,608,608,608,608,608,479,000,000,000,000,000,000,000,477
558,559,477,000,000,000,000,000,000,000,000,000,477,477,000,000,000,608,608,608,608,608,608,479,000,000,000,000,000,000,000,477
558,559,477,000,000,000,000,000,000,000,000,000,477,477,000,000,000,608,608,608,608,608,608,479,000,000,000,000,000,000,000,477
558,559,477,000,000,000,000,000,000,000,000,000,477,477,000,000,000,608,608,608,608,608,608,479,000,000,000,000,000,000,000,477
558,559,477,000,000,000,608,608,608,608,608,608,477,477,000,000,000,608,608,608,608,608,608,725,000,000,000,000,000,000,000,477
558,559,477,000,000,000,608,608,608,608,608,608,477,477,000,000,000,608,608,608,608,608,608,757,000,000,000,000,000,000,000,477
558,559,477,000,000,000,608,608,608,608,608,608,477,477,000,000,000,608,608,608,608,608,608,789,000,000,000,000,000,000,000,477
556,557,477,000,000,000,608,608,608,608,608,608,477,477,000,000,000,608,608,608,608,608,608,479,000,000,000,000,000,000,000,477
588,589,477,000,000,000,608,608,608,608,608,608,477,477,000,000,000,608,608,608,608,608,608,479,000,000,000,000,000,000,000,477
446,446,476,000,000,000,608,608,608,608,608,608,477,477,000,000,000,608,608,608,608,608,608,479,000,000,000,000,000,000,000,477
000,000,000,000,000,000,000,000,000,000,000,000,477,477,000,000,000,608,608,608,608,608,608,479,000,000,000,000,000,000,000,477
000,000,000,000,000,000,000,000,000,000,000,000,477,477,000,000,000,608,608,608,608,608,608,479,000,000,000,000,000,000,000,477
000,000,000,000,000,000,000,000,000,000,000,000,477,477,000,000,000,608,608,608,608,608,608,479,000,000,000,000,000,000,000,477
000,000,000,000,000,000,000,000,000,000,000,000,477,477,000,000,000,443,510,510,510,510,510,511,000,000,000,000,000,000,000,477
000,000,000,000,000,000,000,000,000,000,000,000,477,477,000,000,000,479,000,000,000,000,000,000,000,000,000,000,000,000,000,477
000,000,000,000,000,000,000,000,000,000,000,000,477,477,000,000,000,479,000,000,000,000,000,000,000,000,000,000,000,000,000,509
526,527,526,527,526,527,526,527,526,527,526,527,477,509,510,510,510,511,526,527,526,527,526,527,526,527,526,527,526,527,526,527
