791,792,792,792,792,792,792,792,792,792,792,792,793,1279,000,000,000,000,000,1279,791,792,792,792,792,792,792,792,792,793,558,559
1310,1310,1310,1310,1310,1310,1310,1310,1310,1310,1310,1310,1310,1311,000,000,000,000,000,1309,1310,1310,1310,1310,1310,1310,1310,1310,1310,1310,558,559
540,000,000,000,000,000,000,000,512,000,000,000,000,512,000,000,000,000,000,000,000,000,000,000,000,000,000,000,000,000,558,559
572,000,000,000,000,000,000,000,485,000,000,000,000,485,000,000,000,000,000,000,000,000,000,000,000,000,000,000,000,000,558,559
572,000,000,000,000,000,000,000,514,000,000,000,000,485,000,000,000,000,000,000,000,000,000,000,000,000,000,000,000,000,558,559
572,000,000,000,000,000,000,000,000,000,000,000,000,485,000,000,000,000,000,000,000,000,000,000,000,000,000,000,000,000,558,559
572,000,000,000,000,000,000,000,000,000,000,000,000,485,000,000,000,000,000,000,000,000,000,000,000,000,000,000,000,000,558,559
572,000,000,000,000,000,000,000,000,000,000,000,000,485,000,000,000,000,000,000,000,000,000,000,000,000,000,000,000,000,558,559
572,000,000,000,000,000,000,000,512,000,000,000,000,514,000,000,000,000,000,000,000,000,000,000,000,000,000,000,000,000,558,559
572,000,000,000,000,000,000,000,485,000,000,000,000,000,000,000,000,000,000,000,000,000,000,000,000,000,000,000,000,000,558,559
572,000,000,000,000,000,000,000,485,000,000,000,000,000,000,000,000,000,000,000,000,000,000,000,000,000,000,000,000,000,558,559
572,000,000,000,000,000,000,000,514,000,000,000,000,000,000,000,000,000,000,000,000,000,000,000,000,000,000,000,000,000,558,559
572,000,000,000,000,000,000,000,000,000,000,000,000,512,000,000,000,000,000,000,000,000,000,000,000,000,000,000,000,000,558,559
572,000,000,000,000,000,000,000,000,000,000,000,000,485,000,000,000,000,000,000,000,000,000,000,000,000,000,000,000,000,558,559
572,000,000,000,000,000,000,000,512,000,000,000,000,485,000,000,000,000,000,000,000,000,000,000,000,000,000,000,000,000,558,559
572,000,000,000,000,000,000,000,514,000,000,000,000,514,000,000,000,000,000,000,000,000,000,000,000,000,000,000,000,000,558,559
572,000,000,000,000,000,000,000,526,527,526,527,526,527,526,527,526,527,526,527,526,527,526,527,556,557,556,557,000,000,558,559
572,000,000,000,000,000,000,000,556,557,556,557,556,557,556,557,556,557,556,557,590,591,590,591,588,589,588,589,000,000,558,559
572,000,000,000,000,000,000,000,588,589,588,589,588,589,588,589,588,589,588,589,588,589,588,589,608,608,608,608,608,608,558,559
572,000,000,000,000,000,000,000,000,512,000,000,000,000,000,000,000,000,000,000,512,608,608,608,608,608,608,608,608,608,558,559
572,000,000,000,000,000,000,000,000,485,000,000,000,000,000,000,000,000,000,000,485,608,608,608,608,608,608,608,608,608,558,559
572,000,000,000,000,000,000,000,000,485,000,000,000,000,000,000,000,000,000,000,485,608,608,608,608,608,608,608,608,608,558,559
572,000,000,000,000,000,000,000,000,485,000,000,000,000,000,000,000,000,000,000,485,608,608,608,608,608,608,608,608,608,558,559
572,000,000,000,000,000,000,000,000,485,000,000,000,000,000,000,000,000,000,000,485,608,608,608,608,608,608,608,608,608,558,559
572,000,000,000,000,000,000,000,000,485,000,000,000,000,000,000,000,000,000,000,485,608,608,608,608,608,608,608,608,608,558,559
572,000,000,000,000,000,000,000,000,485,000,000,000,000,000,000,000,000,000,000,485,608,608,608,608,608,608,608,608,608,558,559
572,000,000,000,000,000,000,000,000,485,000,000,000,000,000,000,000,000,000,000,485,608,608,608,608,608,608,608,608,608,558,559
572,000,000,000,000,000,000,000,000,485,000,000,000,000,000,000,000,000,000,000,485,608,608,608,608,608,608,608,608,608,558,559
572,000,000,000,000,000,000,517,481,483,000,000,000,000,000,000,000,000,000,000,485,608,608,608,608,608,608,608,608,608,558,559
572,481,481,481,481,481,481,483,000,000,000,000,000,000,000,000,000,000,000,000,485,608,608,608,608,608,608,608,608,608,558,559
572,000,000,000,000,000,000,000,000,000,000,000,000,000,000,000,000,000,000,000,485,608,608,608,608,608,608,608,608,608,558,559
572,000,000,000,000,000,000,000,000,000,000,000,000,000,000,000,000,000,000,000,514,608,608,608,608,608,608,608,608,608,558,559
