000,000,000,000,000,000,000,000,000,000,000,000,761,570,570,000,000,000,000,000,000,000,000,000,000,000,000,000,000,572,572,1277
000,000,000,000,000,000,000,000,000,000,000,000,761,570,570,000,000,000,000,000,000,000,000,000,000,000,000,000,000,572,572,1309
000,000,000,000,000,000,000,000,000,000,000,000,761,570,570,000,000,000,000,000,000,000,000,000,000,000,000,000,000,572,800,539
000,000,000,000,000,000,000,000,000,000,000,000,761,570,570,000,000,000,000,000,000,000,000,000,000,000,000,000,000,463,539,540
000,000,000,000,000,000,000,000,000,000,000,000,761,570,570,000,000,000,000,000,000,000,000,000,000,000,000,000,000,000,000,572
000,000,000,000,000,000,000,000,000,000,000,000,761,570,570,000,000,000,000,000,000,000,000,000,000,000,000,000,000,000,000,572
000,000,000,000,000,000,000,000,000,000,000,000,761,570,570,000,000,000,000,000,000,000,000,000,000,000,000,000,000,000,000,572
000,000,000,000,000,000,000,000,000,000,000,000,761,570,570,000,000,000,000,000,000,000,000,000,000,000,000,000,000,000,000,572
000,000,000,000,000,000,000,000,000,000,000,000,761,570,570,000,000,000,000,000,000,000,000,000,000,000,000,000,000,000,000,572
000,000,000,000,000,000,000,000,000,000,000,000,761,570,570,000,000,000,000,000,000,000,000,000,000,000,000,000,000,000,000,572
000,000,000,000,000,000,000,000,000,000,000,000,761,570,570,000,000,000,000,000,000,000,000,000,000,000,000,000,000,000,000,572
000,000,000,000,000,000,000,000,000,000,000,000,761,570,570,000,000,000,000,000,000,000,000,000,000,000,000,000,000,000,000,572
000,000,000,000,000,000,000,000,000,000,000,000,761,570,570,000,000,000,000,000,000,000,000,000,000,000,000,000,000,000,000,572
000,000,000,000,000,000,000,000,000,000,000,000,761,570,570,000,000,000,000,000,000,000,000,000,000,000,000,000,000,000,000,572
000,000,000,000,000,000,000,000,000,000,000,000,761,570,570,000,000,000,000,000,000,000,000,000,000,000,000,000,000,000,000,572
000,000,000,000,000,000,000,000,000,000,000,000,761,570,570,000,000,000,000,000,000,000,000,000,000,000,000,000,000,000,000,572
000,000,000,000,000,000,000,000,000,000,000,000,761,570,570,000,000,000,000,000,000,000,000,000,000,000,000,000,000,000,000,572
000,000,000,000,000,000,000,000,000,000,000,000,761,570,570,000,000,000,000,000,000,000,000,000,000,000,000,000,000,000,000,572
000,000,000,000,000,000,000,000,000,000,000,000,761,570,570,000,000,000,000,000,000,000,000,000,000,000,000,000,000,000,000,572
000,000,000,000,000,000,000,000,000,000,000,000,761,570,570,000,000,000,000,000,000,000,000,000,000,000,000,000,000,000,000,572
000,000,000,000,000,000,000,000,000,000,000,000,761,570,570,000,000,000,000,000,000,000,000,000,000,000,000,000,000,000,000,572
000,000,000,000,000,000,000,000,000,000,000,000,761,570,570,000,000,000,000,000,000,000,000,000,000,000,000,000,000,000,000,572
000,000,000,000,000,000,000,000,000,000,000,000,761,570,570,000,000,000,000,000,000,000,000,000,000,000,000,000,000,000,000,572
000,000,000,000,000,000,000,000,000,000,000,000,761,570,570,000,000,000,000,000,000,000,000,000,000,000,000,000,000,000,000,572
000,000,000,000,000,000,000,000,000,000,000,000,761,570,570,000,000,000,000,000,000,000,000,000,000,000,000,000,000,000,000,572
000,000,000,000,000,000,000,000,000,000,000,000,761,570,570,000,000,000,000,000,000,000,000,000,000,000,000,000,000,000,000,572
000,000,000,000,000,000,000,000,000,000,000,000,761,570,570,000,000,000,000,000,000,000,000,000,000,000,000,000,000,000,000,572
000,000,000,000,000,000,000,000,000,000,000,000,761,570,570,000,000,000,000,000,000,000,000,000,000,000,000,000,000,000,000,572
000,000,000,000,000,000,000,000,000,000,000,000,761,570,570,000,000,000,000,000,000,000,000,000,000,000,000,000,000,000,000,572
000,000,000,000,000,000,000,000,000,000,000,000,761,570,570,000,000,000,000,000,000,000,000,000,000,000,000,000,000,000,000,572
000,000,000,000,000,000,000,000,000,000,000,000,761,570,570,000,000,000,000,000,000,000,000,000,000,000,000,000,000,000,000,572
000,000,000,000,000,000,000,000,000,000,000,000,761,570,570,000,000,000,000,000,000,000,000,000,000,000,000,000,000,000,000,572
