558,559,759,000,000,000,761,570,570,570,570,000,000,000,000,000,000,000,000,000,000,000,000,000,000,000,000,000,000,000,000,570
558,559,759,000,000,000,761,570,570,500,602,502,733,734,735,502,502,502,502,502,502,502,502,502,502,502,502,502,502,502,471,570
558,559,759,000,000,000,761,570,570,500,000,000,000,000,000,000,000,000,000,000,000,000,000,000,000,000,000,608,608,608,570,570
558,559,759,000,000,000,761,570,570,500,000,000,000,000,000,000,608,608,608,608,000,000,000,000,000,000,000,608,608,608,570,570
558,559,759,000,000,000,761,570,570,500,000,000,000,000,000,000,608,608,608,608,000,000,000,000,000,608,608,608,608,608,570,570
558,559,759,000,000,000,761,570,570,500,000,000,000,000,000,000,608,608,608,608,000,000,000,000,608,608,608,000,000,000,570,570
558,559,759,000,000,000,761,570,570,602,502,502,502,502,502,502,503,608,608,608,000,000,000,000,608,608,608,000,608,608,570,570
558,559,759,000,000,000,761,570,570,000,000,608,608,608,608,608,479,608,608,608,000,000,000,000,608,608,608,000,608,608,570,570
558,559,759,000,000,000,761,570,570,000,000,608,608,608,608,608,479,608,608,608,000,000,000,000,000,000,000,608,608,608,570,570
558,559,759,000,000,000,761,570,570,608,608,608,608,608,608,608,479,608,608,608,000,000,000,000,000,000,000,608,608,608,570,570
558,559,759,000,000,000,761,570,570,608,608,608,608,608,608,608,475,446,446,446,733,734,735,446,446,446,603,603,603,471,570,570
558,559,759,000,000,000,761,570,570,608,608,608,608,608,608,608,000,000,000,000,000,000,000,000,000,000,608,608,608,570,570,570
558,559,759,000,000,000,761,570,570,608,608,608,608,000,000,000,000,000,000,000,000,000,000,000,000,608,608,608,608,570,570,570
558,559,759,000,000,000,761,570,570,608,608,608,608,000,000,000,000,000,000,000,000,000,000,000,000,608,608,608,608,570,570,570
558,559,759,000,000,000,761,570,570,608,608,608,608,000,000,445,446,446,446,446,446,446,446,446,446,446,446,446,471,570,570,570
558,559,759,000,000,000,761,570,570,000,000,000,000,000,000,477,000,000,000,000,000,608,608,608,608,608,608,608,570,570,570,570
558,559,759,000,000,000,761,570,602,603,603,733,734,735,603,604,000,000,000,000,000,608,608,608,608,608,608,608,570,570,570,570
558,559,759,000,000,000,761,570,608,608,608,000,000,000,000,000,000,000,000,000,000,000,000,608,608,608,608,608,570,570,570,570
558,559,759,000,000,000,761,570,608,608,608,000,000,000,000,000,000,000,000,000,000,000,000,000,000,608,608,608,570,570,570,570
558,559,759,000,000,000,761,570,608,608,608,608,608,608,608,000,000,000,000,000,000,000,000,000,000,608,608,608,570,570,570,570
558,559,759,000,000,000,761,570,608,608,608,608,608,608,608,608,000,000,000,000,000,000,000,000,000,608,608,608,570,570,570,570
558,559,759,000,000,000,761,570,608,608,608,608,608,608,608,608,608,000,000,000,000,000,000,000,000,608,608,608,570,570,570,570
558,559,759,000,000,000,761,570,000,000,000,000,000,608,608,608,608,608,608,000,000,000,000,000,000,000,000,000,570,570,570,570
558,559,759,000,000,000,761,570,000,000,000,000,000,608,608,608,608,608,608,000,000,000,000,000,000,000,000,000,570,570,570,570
558,559,759,000,000,000,761,602,603,603,603,603,603,603,603,603,603,603,603,733,734,735,603,603,603,603,603,471,570,570,570,570
558,559,759,000,000,000,761,608,608,608,608,608,608,000,000,000,000,000,000,000,000,000,000,000,000,000,000,570,570,570,570,570
558,559,759,000,000,000,761,608,608,608,608,608,608,000,000,000,000,000,000,000,000,000,000,000,000,000,000,570,570,570,570,570
558,559,759,000,000,000,761,608,608,608,608,608,608,000,000,000,000,608,608,608,608,608,608,608,608,608,000,570,570,570,570,602
558,559,759,000,000,000,761,608,608,608,608,608,608,000,000,000,000,608,608,608,608,608,608,608,608,608,000,570,570,570,602,603
558,559,759,000,000,000,761,608,608,608,608,608,608,000,000,000,000,608,608,608,608,608,608,608,608,608,000,570,570,602,603,603
558,559,759,000,000,000,569,728,728,728,729,608,608,000,000,000,000,608,608,608,608,608,608,608,608,608,000,570,602,603,603,603
558,559,759,000,000,000,000,000,000,000,761,608,608,000,000,000,000,000,000,000,000,000,000,000,000,000,000,602,603,603,603,603
