000,000,000,000,000,000,000,000,000,000,000,000,558,559,558,559,558,559,558,559,558,559,558,559,558,559,558,559,558,559,000,000
000,000,000,000,000,000,000,000,000,000,000,000,526,527,526,527,526,527,526,527,526,527,526,527,526,527,526,527,526,527,000,000
000,000,000,000,000,000,000,000,000,000,000,000,556,557,556,557,558,559,558,559,558,559,558,559,558,559,558,559,558,559,000,000
000,000,000,000,000,000,000,000,000,000,000,000,588,589,588,589,558,559,558,559,558,559,558,559,558,559,558,559,558,559,000,000
000,000,000,000,000,000,000,000,000,000,000,000,000,000,000,000,556,557,558,559,558,559,558,559,558,559,558,559,558,559,000,000
000,000,000,000,000,000,000,000,000,000,000,000,000,000,000,000,588,589,556,557,556,557,556,557,558,559,558,559,558,559,000,000
000,000,000,000,000,000,000,000,000,000,000,000,000,000,000,000,000,000,588,589,588,589,588,589,556,557,556,557,556,557,000,000
000,000,000,000,000,000,000,000,000,000,000,000,000,000,000,000,000,000,000,000,000,000,608,608,588,589,588,589,588,589,000,000
000,000,000,000,000,000,000,000,000,000,000,000,000,000,000,000,000,000,000,000,000,000,608,608,608,608,608,608,608,608,000,000
000,000,000,000,000,000,000,000,000,000,000,000,000,000,000,000,000,000,000,000,000,000,608,608,608,608,608,608,608,608,000,000
000,000,000,000,000,000,000,000,000,608,608,000,000,000,000,000,000,000,000,000,000,000,608,608,608,608,608,608,608,608,000,000
000,000,000,000,000,000,000,000,000,608,608,608,608,512,000,000,000,000,000,000,000,000,000,608,608,608,608,608,608,608,000,000
000,000,000,000,000,000,000,000,000,608,608,608,608,485,000,000,000,000,000,000,000,000,000,000,608,608,608,608,608,608,000,000
000,000,000,000,000,000,000,000,000,608,608,608,608,485,000,000,000,608,608,000,000,000,000,000,608,608,608,608,608,608,000,000
000,000,000,000,000,000,000,000,000,608,608,608,608,485,000,000,000,608,608,608,608,512,000,000,000,608,608,608,608,608,000,000
000,000,000,000,000,000,000,000,000,608,608,608,608,485,000,000,000,608,608,608,608,485,000,000,000,608,608,608,608,608,000,000
000,000,000,000,000,000,000,000,000,608,608,608,608,485,000,000,000,608,608,608,608,485,000,000,000,608,608,608,608,608,000,000
000,000,000,000,000,000,000,000,000,608,608,608,608,485,000,000,000,608,608,608,608,485,000,000,000,608,608,608,608,608,000,000
000,000,000,000,000,000,000,000,000,608,608,608,608,485,000,000,000,608,608,608,608,485,000,000,000,608,608,608,608,608,000,000
000,000,000,000,000,000,000,000,000,608,608,608,608,514,000,000,000,608,608,608,608,514,000,000,000,608,608,608,608,608,000,000
526,527,526,527,526,527,526,527,526,527,526,527,526,527,526,527,526,527,526,527,526,527,000,000,000,608,608,608,608,608,000,000
526,527,556,557,556,557,556,557,556,557,556,557,556,557,556,557,556,557,556,557,556,557,000,000,000,608,608,608,608,608,000,000
558,559,588,589,588,589,588,589,588,589,588,589,588,589,588,589,588,589,588,589,588,589,000,000,000,608,608,608,608,608,000,000
558,559,000,000,000,000,000,000,000,000,000,000,000,512,000,000,000,000,000,000,000,512,000,000,000,608,608,608,608,608,000,000
558,559,000,000,000,000,000,000,000,000,000,000,000,485,000,000,000,000,000,000,000,485,000,000,000,608,608,608,608,608,000,000
558,559,000,000,000,000,000,000,000,000,000,000,000,485,000,000,000,000,000,000,000,485,000,000,000,608,608,608,608,608,000,000
558,559,000,000,000,000,000,000,000,000,000,000,000,485,000,000,000,000,000,000,000,485,000,000,000,608,608,608,608,608,000,000
558,559,000,000,000,000,000,000,000,000,000,000,000,485,000,000,000,000,000,000,000,485,000,000,000,608,608,608,608,608,000,000
558,559,000,000,000,000,000,000,000,000,000,000,000,485,000,000,000,000,000,000,000,485,000,000,000,608,608,608,608,608,000,000
558,559,000,000,000,000,000,000,000,000,000,000,000,485,000,000,000,000,000,000,000,485,000,000,000,608,608,608,608,608,000,000
558,559,000,000,000,000,000,000,000,000,000,000,000,514,000,000,000,000,000,000,000,514,000,000,000,608,608,608,608,608,000,000
558,559,000,000,000,000,000,000,000,000,000,000,000,000,000,000,000,000,000,000,000,000,000,000,000,608,608,608,608,608,000,000
