008,008,008,008,008,008,008,008,008,008,008,008,008,008,008,008,008,008,008,008,008,008,008,008,008,008,008,008,008,008,008,008
008,008,008,008,008,008,008,008,008,008,008,008,008,008,008,008,008,008,008,008,008,008,008,008,008,008,008,008,008,008,008,008
008,008,008,008,008,008,008,008,008,008,008,008,008,008,008,008,008,008,008,008,008,008,008,008,008,008,008,008,008,008,008,008
008,008,008,008,008,008,008,008,008,008,008,008,008,008,008,008,008,008,008,008,008,008,008,008,008,008,008,008,008,008,008,008
008,008,008,008,008,008,008,008,008,008,008,008,008,008,008,008,008,008,008,008,008,008,008,008,008,008,008,008,008,008,008,008
008,008,008,008,008,008,008,008,008,008,008,008,008,008,008,008,008,008,008,008,008,008,008,008,008,008,008,008,008,008,008,008
008,008,008,008,008,008,008,008,008,008,008,008,008,008,008,008,008,008,008,008,008,008,008,008,008,008,008,008,008,008,008,008
008,008,008,008,008,008,008,008,008,008,008,008,008,008,008,008,008,008,008,008,008,008,008,008,008,008,008,008,008,008,008,008
008,008,008,008,008,008,008,008,008,008,008,008,008,008,008,008,008,008,008,008,008,008,008,008,008,008,008,008,008,008,008,008
008,008,008,008,008,008,008,008,008,008,008,008,008,008,008,008,008,008,008,008,008,008,008,008,008,008,008,008,008,008,008,008
008,008,008,008,008,008,008,008,008,008,008,008,008,008,008,008,008,008,008,008,008,008,008,008,008,008,008,008,008,008,008,008
008,008,008,008,008,008,008,008,008,008,008,008,008,008,008,008,008,008,008,008,008,008,008,008,008,008,008,008,008,008,008,008
008,008,008,008,008,008,008,008,008,008,008,008,008,008,008,008,008,008,008,008,008,008,008,008,008,008,008,008,008,008,008,008
008,008,008,008,008,008,008,008,008,008,008,008,008,008,008,008,008,008,008,008,008,008,008,008,008,008,008,008,008,008,008,008
008,008,008,008,008,008,008,008,008,008,008,008,008,008,008,008,008,008,008,008,008,008,008,008,008,008,008,008,008,008,008,008
008,008,008,008,008,008,008,008,008,008,008,008,008,008,008,008,008,008,008,008,008,008,008,008,008,008,008,008,008,008,008,008
008,008,008,008,008,008,008,008,008,008,008,008,008,008,008,008,008,008,008,008,008,008,008,008,008,008,008,008,008,008,008,008
008,008,008,008,008,008,008,008,008,008,008,008,008,008,008,008,008,008,008,008,008,008,008,008,008,008,008,008,008,008,008,008
008,008,008,008,008,008,008,008,008,008,008,008,008,008,008,008,008,008,008,008,008,008,008,008,008,008,008,008,008,008,008,008
008,008,008,008,008,008,008,008,008,008,008,008,008,008,008,008,008,008,008,008,008,008,008,008,008,008,008,008,008,008,008,008
008,008,008,008,008,008,008,008,008,008,008,008,008,008,008,008,008,008,008,008,008,008,008,008,008,008,008,008,008,008,008,008
008,008,008,008,008,008,008,008,008,008,008,008,008,008,008,008,008,008,008,008,008,008,008,008,008,008,008,008,008,008,008,008
008,008,008,008,008,008,008,008,008,008,008,008,008,008,008,008,008,008,008,008,008,008,008,008,008,008,008,008,008,008,008,008
008,008,008,008,008,008,008,008,008,008,008,008,008,008,008,008,008,008,008,008,008,008,008,008,008,008,008,008,008,008,008,008
008,008,008,008,008,008,008,008,008,008,008,008,008,008,008,008,008,008,008,008,008,008,008,008,008,008,008,008,008,008,008,008
008,008,008,008,008,008,008,008,008,008,008,008,008,008,008,008,008,008,008,008,008,008,008,008,008,008,008,008,008,008,008,008
008,008,008,008,008,008,008,008,008,008,008,008,008,008,008,008,008,008,008,008,008,008,008,008,008,008,008,008,008,008,008,008
008,008,008,008,008,008,008,008,008,008,008,008,008,008,008,008,008,008,008,008,008,008,008,008,008,008,008,008,008,008,008,008
008,008,008,008,008,008,008,008,008,008,008,008,008,008,008,008,008,008,008,008,008,008,008,008,008,008,008,008,008,008,008,008
008,008,008,008,008,008,008,008,008,008,008,008,008,008,008,008,008,008,008,008,008,008,008,008,008,008,008,008,008,008,008,008
008,008,008,008,008,008,008,008,008,008,008,008,008,008,008,008,008,008,008,008,008,008,008,008,008,008,008,008,008,008,008,008
008,008,008,008,008,008,008,008,008,008,008,008,008,008,008,008,008,008,008,008,008,008,008,008,008,008,008,008,008,008,008,008
