526,527,759,000,000,000,761,570,570,570,570,570,570,000,570,570,000,000,000,000,000,000,000,000,000,572,000,572,000,000,572,572
558,559,759,000,000,000,761,570,570,570,570,570,570,000,570,570,000,000,000,000,000,000,000,000,000,572,000,572,000,000,572,572
558,559,759,000,000,000,761,570,570,570,570,570,570,000,570,570,000,000,000,000,000,000,000,000,000,572,000,572,000,000,572,572
558,559,759,000,000,000,761,570,570,570,570,570,570,000,570,570,000,000,000,000,000,000,000,000,000,572,000,572,000,000,572,572
558,559,759,000,000,000,761,570,570,570,570,570,570,000,570,570,000,000,000,000,000,000,000,000,000,572,000,572,000,000,572,572
558,559,759,000,000,000,761,570,570,570,570,570,570,000,570,570,000,000,000,000,000,000,000,000,000,572,000,572,000,000,572,572
558,559,759,000,000,000,761,570,570,570,570,570,570,000,570,570,000,000,000,000,000,000,000,000,000,572,000,572,000,000,572,572
558,559,759,000,000,000,761,570,570,570,570,570,570,000,570,570,000,000,000,000,000,000,000,000,000,572,000,572,000,000,572,572
558,559,759,000,000,000,761,570,570,570,570,570,570,000,570,570,000,000,000,000,000,000,000,000,000,572,000,572,000,000,572,572
558,559,759,000,000,000,761,570,570,570,570,570,570,000,570,570,000,000,000,000,000,000,000,000,000,572,000,572,000,000,572,572
558,559,759,000,000,000,761,570,570,570,570,570,570,000,570,570,000,000,000,000,000,000,000,000,000,572,000,572,000,000,572,572
558,559,759,000,000,000,761,570,570,570,570,570,570,000,570,570,000,000,000,000,000,000,000,000,000,572,000,572,000,000,572,572
558,559,759,000,000,000,761,570,570,570,570,570,570,000,570,570,000,000,000,000,000,000,000,000,000,572,000,572,000,000,572,572
558,559,759,000,000,000,761,570,570,570,570,570,570,000,570,570,000,000,000,000,000,000,000,000,000,572,000,572,000,000,572,572
558,559,759,000,000,000,761,570,570,570,570,570,570,000,570,570,000,000,000,000,000,000,000,000,000,572,000,572,000,000,572,572
558,559,759,000,000,000,761,570,570,570,570,570,570,000,570,570,000,000,000,000,000,000,000,000,000,572,000,572,000,000,572,572
558,559,759,000,000,000,761,570,570,570,570,570,570,000,570,570,000,000,000,000,000,000,000,000,000,572,000,572,000,000,572,572
558,559,759,000,000,000,761,570,570,570,570,570,570,000,570,570,000,000,000,000,000,000,000,000,000,572,000,572,000,000,572,572
558,559,759,000,000,000,761,570,570,570,570,570,570,000,570,570,000,000,000,000,000,000,000,000,000,572,000,572,000,000,572,572
558,559,759,000,000,000,761,570,570,570,570,570,570,000,570,570,000,000,000,000,000,000,000,000,000,572,000,572,000,000,572,572
558,559,759,000,000,000,761,570,570,570,570,570,570,000,570,570,000,000,000,000,000,000,000,000,000,572,000,572,000,000,572,572
558,559,759,000,000,000,761,570,570,570,570,570,570,000,570,570,000,000,000,000,000,000,000,000,000,572,000,572,000,000,572,572
558,559,759,000,000,000,761,570,570,570,570,570,570,000,570,570,000,000,000,000,000,000,000,000,000,572,000,572,000,000,572,572
558,559,759,000,000,000,761,570,570,570,570,570,570,000,570,570,000,000,000,000,000,000,000,000,000,572,000,572,000,000,572,572
558,559,759,000,000,000,761,570,570,570,570,570,570,000,570,570,000,000,000,000,000,000,000,000,000,572,000,572,000,000,572,572
558,559,759,000,000,000,761,570,570,570,570,570,570,000,570,570,000,000,000,000,000,000,000,000,000,572,000,572,000,000,572,572
558,559,759,000,000,000,761,570,570,570,570,570,570,000,570,570,000,000,000,000,000,000,000,000,000,572,000,572,000,000,572,572
558,559,759,000,000,000,761,570,570,570,570,570,570,000,570,570,000,000,000,000,000,000,000,000,000,572,000,572,000,000,572,572
558,559,759,000,000,000,761,570,570,570,570,570,570,000,570,570,000,000,000,000,000,000,000,000,000,572,000,572,000,000,572,572
558,559,759,000,000,000,761,570,570,570,570,570,570,000,570,570,000,000,000,000,000,000,000,000,000,572,000,572,000,000,572,572
558,559,759,000,000,000,761,570,570,570,570,570,570,000,570,602,603,603,603,603,603,603,603,603,603,604,000,572,000,000,572,572
558,559,759,000,000,000,761,570,570,570,570,570,570,000,602,603,603,603,603,603,603,603,603,603,603,603,603,604,000,000,572,572
