558,559,558,559,558,559,558,559,558,559,558,559,558,559,558,559,558,559,558,559,558,559,558,559,558,559,558,559,558,559,558,559
558,559,558,559,558,559,558,559,558,559,558,559,558,559,558,559,558,559,558,559,558,559,558,559,558,559,558,559,558,559,558,559
558,559,558,559,558,559,558,559,558,559,558,559,558,559,558,559,558,559,558,559,558,559,558,559,558,559,558,559,558,559,558,559
558,559,558,559,558,559,558,559,558,559,558,559,558,559,558,559,558,559,558,559,558,559,558,559,558,559,558,559,558,559,558,559
558,559,558,559,558,559,558,559,558,559,558,559,558,559,558,559,558,559,558,559,558,559,558,559,558,559,558,559,558,559,558,559
558,559,558,559,558,559,558,559,558,559,558,559,558,559,558,559,558,559,558,559,558,559,558,559,558,559,558,559,558,559,558,559
558,559,558,559,558,559,558,559,558,559,558,559,558,559,558,559,558,559,558,559,558,559,558,559,558,559,558,559,558,559,558,559
558,559,558,559,558,559,558,559,558,559,558,559,558,559,558,559,558,559,558,559,558,559,558,559,558,559,558,559,558,559,558,559
558,559,558,559,558,559,558,559,558,559,558,559,558,559,558,559,558,559,558,559,558,559,558,559,558,559,558,559,558,559,558,559
558,559,558,559,558,559,558,559,558,559,558,559,558,559,558,559,558,559,558,559,558,559,558,559,558,559,558,559,558,559,558,559
558,559,558,559,558,559,558,559,558,559,558,559,558,559,558,559,558,559,558,559,558,559,558,559,558,559,558,559,558,559,558,559
558,559,558,559,558,559,558,559,558,559,558,559,558,559,558,559,558,559,558,559,558,559,558,559,558,559,558,559,558,559,558,559
558,559,558,559,558,559,558,559,558,559,558,559,558,559,558,559,558,559,558,559,558,559,558,559,558,559,558,559,558,559,558,559
558,559,558,559,558,559,558,559,558,559,558,559,558,559,558,559,558,559,558,559,558,559,558,559,558,559,558,559,558,559,558,559
558,559,558,559,558,559,558,559,558,559,558,559,558,559,558,559,558,559,558,559,558,559,558,559,558,559,558,559,558,559,558,559
558,559,558,559,558,559,558,559,558,559,558,559,558,559,558,559,558,559,558,559,558,559,558,559,558,559,558,559,558,559,558,559
558,559,558,559,558,559,558,559,558,559,558,559,558,559,558,559,558,559,558,559,558,559,558,559,558,559,558,559,558,559,558,559
558,559,558,559,558,559,558,559,558,559,558,559,558,559,558,559,558,559,558,559,558,559,558,559,558,559,558,559,558,559,558,559
558,559,558,559,558,559,558,559,558,559,558,559,558,559,558,559,558,559,558,559,558,559,558,559,558,559,558,559,558,559,558,559
558,559,558,559,558,559,558,559,558,559,558,559,558,559,558,559,558,559,558,559,558,559,558,559,558,559,558,559,558,559,558,559
558,559,558,559,558,559,558,559,558,559,558,559,558,559,558,559,558,559,558,559,558,559,558,559,558,559,558,559,558,559,558,559
558,559,558,559,558,559,558,559,558,559,558,559,558,559,558,559,558,559,558,559,558,559,558,559,558,559,558,559,558,559,558,559
558,559,558,559,558,559,558,559,558,559,558,559,558,559,558,559,558,559,558,559,558,559,558,559,558,559,558,559,558,559,558,559
558,559,558,559,558,559,558,559,558,559,558,559,558,559,558,559,558,559,558,559,558,559,558,559,558,559,558,559,558,559,558,559
558,559,558,559,558,559,558,559,558,559,558,559,558,559,558,559,558,559,558,559,558,559,558,559,558,559,558,559,558,559,558,559
558,559,558,559,558,559,558,559,558,559,558,559,558,559,558,559,558,559,558,559,558,559,558,559,558,559,558,559,558,559,558,559
558,559,558,559,558,559,558,559,558,559,558,559,558,559,558,559,558,559,558,559,558,559,558,559,558,559,558,559,558,559,558,559
558,559,558,559,558,559,558,559,558,559,558,559,558,559,558,559,558,559,558,559,558,559,558,559,558,559,558,559,558,559,558,559
558,559,558,559,558,559,558,559,558,559,558,559,558,559,558,559,558,559,558,559,558,559,558,559,558,559,558,559,558,559,558,559
558,559,558,559,558,559,558,559,558,559,558,559,558,559,558,559,558,559,558,559,558,559,558,559,558,559,558,559,558,559,558,559
558,559,558,559,558,559,558,559,558,559,558,559,558,559,558,559,558,559,558,559,558,559,558,559,558,559,558,559,558,559,558,559
558,559,558,559,558,559,558,559,558,559,558,559,558,559,558,559,558,559,558,559,558,559,558,559,558,559,558,559,558,559,558,559
