572,000,000,000,000,000,000,000,000,000,000,000,000,000,000,000,000,000,000,000,526,527,526,527,526,527,526,527,526,527,558,559
572,000,000,000,000,000,000,000,000,000,000,000,000,000,000,000,000,000,000,000,556,557,556,557,558,559,558,559,558,559,558,559
572,000,000,000,000,000,000,000,000,000,000,000,000,000,000,000,000,000,000,000,588,589,588,589,526,527,526,527,526,527,558,559
572,000,000,000,000,000,000,000,000,000,000,000,000,000,000,000,000,000,000,000,000,000,000,000,556,557,556,557,556,557,558,559
572,000,000,000,000,000,000,000,000,000,000,000,000,000,000,000,000,000,000,000,000,000,000,000,588,589,588,589,588,589,558,559
572,000,000,000,000,000,000,000,000,000,000,000,000,000,000,000,000,000,000,000,000,000,000,000,512,000,000,000,000,000,558,559
572,000,000,000,000,000,000,000,000,000,000,000,000,000,000,000,000,000,000,000,000,000,000,000,485,000,000,000,000,000,558,559
572,000,000,000,000,000,000,000,000,000,000,000,000,000,000,000,000,000,000,000,000,000,000,000,485,000,000,000,000,000,558,559
572,000,000,000,000,000,000,000,000,000,000,000,000,000,000,000,000,000,000,000,000,000,000,000,485,000,000,000,000,000,558,559
572,481,481,481,481,481,481,481,481,481,481,481,516,000,000,000,000,000,000,000,000,000,000,000,485,000,000,000,000,000,558,559
572,000,000,000,000,000,000,000,000,000,000,000,485,000,000,000,000,000,000,000,000,000,000,000,485,000,000,000,000,000,558,559
572,000,000,000,000,000,000,000,000,000,000,000,485,000,000,000,000,000,000,000,000,000,000,000,485,000,000,000,000,000,558,559
572,481,481,481,481,481,516,000,000,000,000,000,485,000,000,000,000,000,000,000,000,000,000,000,485,000,000,000,000,000,558,559
572,000,000,000,000,000,485,000,000,000,000,000,485,000,000,000,000,000,000,000,000,000,000,000,514,000,000,000,000,000,558,559
572,000,000,000,000,000,514,000,000,000,000,000,485,000,000,000,000,000,000,000,000,000,000,000,000,000,000,000,000,000,558,559
572,000,000,000,000,000,000,000,000,000,000,000,485,000,000,000,000,000,000,000,000,000,000,000,000,000,000,000,000,000,558,559
572,000,000,000,000,000,000,000,000,000,000,000,485,000,000,000,000,000,000,000,000,000,000,000,512,000,000,000,000,000,558,559
572,000,000,000,000,000,512,000,000,000,000,000,485,000,000,000,000,000,000,000,000,000,000,000,485,000,000,000,000,000,558,559
572,000,000,000,000,000,485,000,000,000,000,000,485,000,000,000,000,000,000,000,000,000,000,000,485,000,000,000,000,000,558,559
572,481,481,481,481,481,483,000,000,000,000,000,485,000,000,000,000,000,000,000,000,000,000,000,485,000,000,000,000,000,558,559
572,000,000,000,000,000,000,000,000,000,000,000,514,000,000,000,000,000,000,000,000,000,000,000,485,000,000,000,000,000,558,559
572,000,000,000,000,000,000,000,000,000,000,000,000,000,000,000,000,000,000,000,000,000,000,000,514,000,000,000,000,000,558,559
572,000,000,000,000,000,000,000,000,000,000,000,000,000,000,000,000,000,000,000,000,000,000,000,000,000,000,000,000,000,558,559
572,000,000,000,000,000,000,000,000,000,000,000,000,000,000,000,000,000,000,000,000,000,000,000,512,000,000,000,000,000,558,559
572,000,000,000,000,000,000,000,000,000,000,000,512,000,000,000,000,000,000,000,000,000,000,000,485,000,000,000,000,000,558,559
572,000,000,000,000,000,000,000,000,000,000,000,485,000,000,000,000,000,000,000,000,000,000,000,514,000,000,000,000,000,558,559
572,000,000,000,000,000,000,000,000,000,000,000,485,000,000,000,000,000,000,000,000,000,000,000,000,000,000,000,000,000,558,559
572,000,000,000,000,000,000,000,000,000,000,000,485,000,000,000,000,000,000,000,000,000,000,000,000,000,000,000,000,000,558,559
572,000,000,000,000,000,000,000,000,000,000,000,514,000,000,000,000,000,000,000,000,000,000,000,000,000,000,000,000,000,558,559
572,000,000,000,000,000,000,000,000,000,000,000,526,527,526,527,526,527,526,527,526,527,526,527,526,527,526,527,526,527,558,559
572,000,000,000,000,000,000,000,000,000,000,000,558,559,558,559,558,559,558,559,558,559,558,559,558,559,558,559,558,559,558,559
604,000,000,000,000,000,000,000,000,000,000,000,558,559,558,559,558,559,558,559,558,559,558,559,558,559,558,559,558,559,558,559
