758,828,828,828,828,828,828,828,828,828,828,828,828,828,828,828,828,828,828,828,828,828,828,828,828,828,822,000,000,000,000,000
540,000,000,000,000,000,000,000,000,000,000,000,000,000,000,000,000,000,000,000,000,000,000,000,000,000,000,000,000,000,000,000
572,000,000,000,000,000,000,000,000,000,000,000,000,000,000,000,000,000,000,000,000,000,000,000,000,000,000,000,000,000,000,000
572,000,000,000,000,000,000,000,000,000,000,000,000,000,000,000,000,000,000,000,000,000,000,000,000,000,000,000,000,000,000,000
572,000,000,000,000,000,914,000,000,000,000,000,000,000,000,000,000,000,000,000,000,000,000,000,000,000,000,000,000,000,000,000
572,941,942,943,944,945,946,000,000,000,000,000,1152,1153,1154,1155,000,000,000,000,000,000,000,000,000,000,000,000,000,000,000,000
572,000,000,000,000,000,000,000,000,000,000,000,000,000,000,000,000,000,000,000,000,000,000,000,000,000,000,000,000,000,000,000
572,000,000,000,000,000,000,000,000,000,000,000,000,000,000,000,000,000,000,000,000,000,000,000,000,000,000,000,000,000,000,000
572,000,000,000,000,000,000,000,000,000,000,000,000,000,000,000,000,000,000,000,000,000,000,000,000,000,000,000,000,000,000,000
572,000,000,000,000,000,000,000,000,000,000,000,000,000,000,000,000,000,000,000,000,000,000,000,000,000,000,000,000,000,000,000
572,000,000,000,000,000,000,000,000,000,000,000,000,000,000,000,000,000,000,000,000,000,000,000,000,000,000,000,000,000,000,000
572,000,000,000,000,000,000,000,000,000,000,000,000,000,000,000,000,000,000,000,000,000,000,000,000,000,000,000,000,000,000,000
572,000,000,000,000,000,000,000,000,000,000,000,000,000,000,000,000,1156,1157,1158,1159,000,000,000,000,000,000,000,000,000,000,000
572,000,000,000,000,1152,1153,1154,1155,000,000,000,000,000,000,000,000,000,000,000,000,000,000,000,000,000,000,000,000,000,000,000
572,000,000,000,000,000,000,000,000,000,000,000,000,000,000,000,000,000,000,000,000,000,000,000,000,000,000,000,000,000,000,000
572,000,000,000,000,000,000,000,000,000,000,000,000,000,000,000,000,000,000,000,000,000,000,000,000,000,000,000,000,000,000,000
572,000,000,000,000,000,000,000,000,000,000,000,000,000,000,000,000,000,000,000,000,000,000,000,000,000,000,000,000,000,000,000
572,000,000,000,000,000,000,000,000,000,000,000,000,000,000,000,000,000,000,000,000,000,000,000,000,000,000,000,000,000,000,000
572,000,000,000,000,000,000,000,000,000,000,000,000,000,000,000,000,000,000,000,000,000,000,000,000,000,000,000,000,000,000,000
604,000,000,000,000,000,000,000,000,000,000,000,000,000,000,000,000,000,000,000,000,000,000,000,000,000,000,000,000,000,000,000
1246,1246,1246,1246,1246,1246,1246,1246,1246,1246,1246,1246,1246,1247,000,000,000,000,000,1245,1246,1246,1246,1246,1246,1246,1246,1246,1246,1246,1310,1310
727,728,728,728,728,728,728,728,728,728,728,728,729,1279,000,000,000,000,000,1277,727,728,728,728,728,728,728,728,728,728,728,728
759,000,000,000,000,000,000,000,000,000,000,000,761,1279,000,000,000,000,000,1277,759,000,000,000,000,000,000,000,000,000,000,000
759,000,000,000,000,000,000,000,000,000,000,000,761,1279,000,000,000,000,000,1277,759,000,000,000,000,000,000,000,000,000,000,000
759,000,000,000,000,000,000,000,000,000,000,000,761,1279,000,000,000,000,000,1277,759,000,000,000,000,000,000,000,000,000,000,000
759,000,000,000,000,000,000,000,000,000,000,000,761,1279,000,000,000,000,000,1277,759,000,000,000,000,000,000,000,000,000,000,000
759,000,000,000,000,000,000,000,000,000,000,000,761,1279,000,000,000,000,000,1277,759,000,000,000,000,000,000,000,000,000,000,000
759,000,000,000,000,000,000,000,000,000,000,000,761,1279,000,000,000,000,000,1277,759,000,000,000,000,000,000,000,000,000,000,000
759,000,000,000,000,000,000,000,000,000,000,000,761,1279,000,000,000,000,000,1277,759,000,000,000,000,000,000,000,000,601,792,792
759,000,000,000,000,000,000,000,000,000,000,000,761,1279,000,000,000,000,000,1277,759,000,000,000,000,000,000,000,000,761,526,527
759,000,000,000,000,000,000,000,000,000,000,000,761,1279,000,000,000,000,000,1277,759,000,000,000,000,000,000,000,000,761,558,559
759,000,000,000,000,000,000,000,000,000,000,000,761,1279,000,000,000,000,000,1277,759,000,000,000,000,000,000,000,000,761,558,559
