570,570,000,000,000,000,000,000,000,000,000,000,000,000,000,000,000,000,000,000,000,000,000,000,000,000,000,000,000,000,000,000
570,570,000,000,000,000,000,000,000,000,000,000,000,000,000,000,000,000,000,000,000,000,000,000,000,000,000,000,000,000,000,000
570,570,000,000,000,000,000,000,000,000,000,000,000,000,000,000,000,000,000,000,000,000,000,000,000,000,000,000,000,000,000,000
570,570,000,000,000,000,000,000,000,000,000,000,000,000,000,000,000,000,000,000,000,000,000,000,000,000,000,000,000,000,000,000
570,570,000,000,000,000,000,000,000,000,000,000,000,000,000,000,000,000,000,000,000,000,000,000,000,000,000,000,000,000,000,000
570,570,000,000,000,000,000,000,000,000,000,000,000,000,000,000,000,000,000,000,000,000,000,000,000,000,000,000,000,000,000,000
570,570,000,000,000,000,000,000,000,000,000,000,000,000,000,000,000,000,000,000,000,000,000,000,000,000,000,000,000,000,000,000
570,570,000,000,000,000,000,000,000,000,000,000,000,000,000,000,000,000,000,000,000,000,000,000,000,000,000,000,000,000,000,000
570,570,000,000,000,000,000,000,000,000,000,000,000,000,000,000,000,000,000,000,000,000,000,000,000,000,000,000,000,000,000,000
570,570,000,000,000,000,000,000,000,000,000,000,000,000,000,000,000,000,000,000,000,000,000,000,000,000,000,000,000,000,000,000
570,570,000,000,000,000,000,000,000,000,000,000,000,000,000,000,000,000,000,000,000,000,000,000,000,000,000,000,000,000,000,000
570,570,000,000,000,000,000,000,000,000,000,000,000,000,000,000,000,000,000,000,000,000,000,000,000,000,000,000,000,000,000,000
570,570,000,000,000,000,000,000,000,000,000,000,000,000,000,000,000,000,000,000,000,000,000,000,000,000,000,000,000,000,000,000
570,602,603,603,603,603,603,603,603,603,603,603,603,603,603,603,603,603,603,471,000,000,000,000,000,000,000,000,000,000,000,000
570,000,000,000,000,000,000,000,000,000,000,000,000,000,000,000,000,000,000,570,000,000,000,000,000,000,000,000,000,000,000,000
602,603,603,603,603,603,603,603,603,603,603,603,603,603,603,603,603,603,471,570,000,000,000,000,000,000,000,000,000,000,000,000
000,000,000,000,000,000,000,000,000,000,000,000,000,000,000,000,000,000,570,570,000,000,000,000,000,000,000,000,000,000,000,000
000,000,000,000,000,000,000,000,000,000,000,000,000,000,000,000,000,000,570,570,000,000,000,000,000,000,000,000,000,000,000,000
603,603,603,603,603,471,000,000,000,000,000,000,000,000,000,000,000,000,570,570,000,000,000,000,000,000,000,000,000,000,000,000
603,603,603,603,471,570,000,000,000,000,000,000,000,000,000,000,000,000,570,570,000,000,000,000,000,000,000,000,000,000,000,000
000,000,000,000,570,570,000,000,000,000,000,000,000,000,000,000,000,000,570,570,000,000,000,000,000,000,000,000,000,000,000,000
000,000,000,000,570,570,000,000,000,000,000,000,000,000,000,000,000,000,570,602,603,603,603,603,603,603,603,603,603,603,603,603
000,000,000,000,570,570,000,000,000,000,000,000,000,000,000,000,000,000,570,000,469,603,603,603,603,603,603,603,603,603,603,603
000,000,000,000,570,570,000,000,000,000,000,000,000,000,000,000,000,000,570,000,572,469,603,603,603,603,603,603,603,603,603,603
603,603,603,471,570,602,603,603,603,603,603,603,603,603,603,603,603,471,570,000,572,572,469,603,603,603,603,603,603,603,603,603
603,603,471,570,570,000,000,000,014,603,603,603,603,603,603,603,503,570,602,603,604,572,572,469,603,603,603,603,603,603,603,603
603,471,570,570,602,603,603,603,046,603,603,603,603,603,603,471,570,602,603,014,603,604,572,572,469,603,603,603,603,603,603,603
738,570,570,570,000,000,000,000,000,000,000,000,000,000,000,570,602,603,603,046,603,603,604,572,572,469,603,603,603,603,603,603
570,570,570,570,000,000,000,000,000,000,000,000,000,000,000,570,000,000,000,000,000,000,000,572,572,572,469,470,470,470,470,470
570,570,570,570,000,000,000,000,000,000,000,000,000,000,000,570,000,000,000,000,000,000,000,572,572,572,572,736,603,603,603,603
570,570,570,570,000,000,000,000,000,000,000,000,000,000,000,570,000,000,000,000,000,000,000,572,572,572,572,572,530,531,526,527
570,570,570,570,000,000,000,000,000,000,000,000,000,000,000,570,000,000,000,000,000,000,000,572,572,572,572,572,562,563,558,559
