526,527,526,527,526,527,526,527,526,527,526,527,526,527,526,527,526,527,526,527,558,559,558,559,558,559,558,559,558,559,558,559
558,559,558,559,558,559,558,559,558,559,558,559,558,559,558,559,558,559,558,559,558,559,558,559,558,559,558,559,558,559,558,559
558,559,558,559,558,559,558,559,558,559,558,559,558,559,558,559,558,559,558,559,558,559,558,559,558,559,558,559,558,559,558,559
558,559,558,559,558,559,558,559,558,559,558,559,558,559,558,559,558,559,558,559,558,559,558,559,558,559,558,559,558,559,558,559
558,559,558,559,558,559,558,559,558,559,558,559,558,559,558,559,558,559,558,559,558,559,558,559,558,559,558,559,558,559,558,559
558,559,558,559,558,559,558,559,558,559,558,559,558,559,558,559,558,559,558,559,558,559,558,559,558,559,558,559,558,559,558,559
558,559,558,559,558,559,558,559,558,559,558,559,558,559,558,559,558,559,558,559,558,559,558,559,558,559,558,559,558,559,558,559
558,559,558,559,558,559,558,559,558,559,558,559,558,559,558,559,558,559,558,559,558,559,558,559,558,559,558,559,558,559,558,559
558,559,558,559,558,559,558,559,558,559,558,559,558,559,558,559,558,559,558,559,558,559,558,559,558,559,558,559,558,559,558,559
558,559,558,559,558,559,558,559,558,559,558,559,558,559,558,559,558,559,558,559,558,559,558,559,558,559,558,559,558,559,558,559
558,559,558,559,558,559,558,559,558,559,558,559,558,559,558,559,558,559,558,559,558,559,558,559,558,559,558,559,558,559,558,559
558,559,558,559,558,559,558,559,558,559,558,559,558,559,558,559,558,559,558,559,558,559,558,559,558,559,558,559,558,559,558,559
558,559,558,559,558,559,558,559,558,559,558,559,558,559,558,559,558,559,558,559,558,559,558,559,558,559,558,559,558,559,558,559
558,559,558,559,558,559,558,559,558,559,558,559,558,559,558,559,558,559,558,559,558,559,558,559,558,559,558,559,558,559,558,559
558,559,558,559,558,559,558,559,558,559,558,559,558,559,558,559,558,559,558,559,558,559,558,559,558,559,558,559,558,559,558,559
558,559,558,559,558,559,558,559,558,559,558,559,558,559,558,559,558,559,558,559,558,559,558,559,558,559,558,559,558,559,558,559
558,559,558,559,558,559,558,559,558,559,558,559,558,559,558,559,558,559,558,559,558,559,558,559,558,559,558,559,558,559,558,559
558,559,558,559,558,559,558,559,558,559,558,559,558,559,558,559,558,559,558,559,558,559,558,559,558,559,558,559,558,559,558,559
558,559,558,559,558,559,558,559,558,559,558,559,558,559,558,559,558,559,558,559,558,559,558,559,558,559,558,559,558,559,558,559
558,559,558,559,558,559,558,559,558,559,558,559,558,559,558,559,558,559,558,559,558,559,558,559,558,559,558,559,558,559,558,559
558,559,558,559,558,559,558,559,558,559,558,559,558,559,558,559,558,559,558,559,558,559,558,559,558,559,558,559,558,559,558,559
558,559,558,559,558,559,558,559,558,559,558,559,558,559,558,559,558,559,558,559,558,559,558,559,558,559,558,559,558,559,558,559
558,559,558,559,558,559,558,559,558,559,558,559,558,559,558,559,558,559,558,559,558,559,558,559,558,559,558,559,558,559,558,559
558,559,558,559,558,559,558,559,558,559,558,559,558,559,558,559,558,559,558,559,558,559,558,559,558,559,558,559,558,559,558,559
558,559,558,559,558,559,558,559,558,559,558,559,558,559,558,559,558,559,558,559,558,559,558,559,558,559,558,559,558,559,558,559
558,559,558,559,558,559,558,559,558,559,558,559,558,559,558,559,558,559,558,559,558,559,558,559,558,559,558,559,558,559,558,559
558,559,558,559,558,559,558,559,558,559,558,559,558,559,558,559,558,559,558,559,558,559,558,559,558,559,558,559,558,559,558,559
558,559,558,559,558,559,558,559,558,559,558,559,558,559,558,559,558,559,558,559,558,559,558,559,558,559,558,559,558,559,558,559
558,559,558,559,558,559,558,559,558,559,558,559,558,559,558,559,558,559,558,559,558,559,558,559,558,559,558,559,558,559,558,559
558,559,558,559,558,559,558,559,558,559,558,559,558,559,558,559,558,559,558,559,558,559,558,559,558,559,558,559,558,559,558,559
558,559,558,559,558,559,558,559,558,559,558,559,558,559,558,559,558,559,558,559,558,559,558,559,558,559,558,559,558,559,558,559
558,559,558,559,558,559,558,559,558,559,558,559,558,559,558,559,558,559,558,559,558,559,558,559,558,559,558,559,558,559,558,559
