510,510,510,510,510,510,510,510,510,510,510,510,510,510,510,510,510,510,510,510,511,479,558,559,558,559,558,559,558,559,558,559
000,000,000,000,000,000,000,000,000,000,000,000,000,000,000,000,000,000,000,000,000,479,558,559,558,559,558,559,558,559,558,559
000,000,000,000,000,000,000,000,000,000,000,000,000,000,000,000,000,000,000,000,000,479,558,559,558,559,558,559,558,559,558,559
000,000,000,000,000,000,000,000,000,000,000,000,000,000,608,608,608,608,608,000,000,479,558,559,558,559,558,559,558,559,558,559
000,000,000,000,608,608,000,000,000,000,000,000,000,000,608,608,608,608,608,000,000,479,558,559,558,559,558,559,558,559,558,559
000,000,000,000,608,608,000,000,000,000,000,000,000,000,608,608,608,608,608,000,000,479,558,559,558,559,558,559,558,559,558,559
000,000,000,000,608,608,608,608,000,000,000,000,000,000,608,608,608,608,608,000,000,479,558,559,558,559,558,559,558,559,558,559
000,000,000,000,608,608,608,608,000,000,000,000,000,000,000,000,000,000,000,000,000,479,558,559,558,559,558,559,558,559,558,559
000,000,000,608,608,608,608,608,608,000,000,000,000,000,000,000,000,000,000,000,000,479,558,559,558,559,558,559,558,559,558,559
000,000,000,608,608,608,608,608,608,608,000,000,000,000,000,000,000,000,000,000,000,479,558,559,558,559,558,559,558,559,558,559
000,000,000,000,608,608,608,608,608,000,000,000,000,000,000,000,000,000,000,000,000,479,556,557,558,559,558,559,558,559,558,559
000,000,000,000,000,000,000,000,000,000,000,000,000,000,000,000,000,000,000,000,000,479,588,589,558,559,558,559,558,559,558,559
000,000,000,000,000,000,000,000,000,000,000,000,000,000,000,000,000,000,000,000,000,475,446,447,558,559,558,559,558,559,558,559
000,000,000,000,000,000,000,000,000,000,000,000,000,000,000,000,000,000,000,000,000,000,000,479,558,559,558,559,558,559,558,559
000,000,000,000,000,000,000,000,000,000,000,000,000,000,000,000,000,000,000,000,000,000,000,479,556,557,558,559,558,559,558,559
000,000,000,000,000,000,000,000,000,000,000,000,000,000,000,000,000,000,000,000,000,000,000,479,588,589,558,559,558,559,558,559
000,000,000,000,000,608,608,608,000,000,000,000,000,000,000,000,000,000,000,000,000,000,000,475,446,447,558,559,558,559,558,559
000,000,000,000,608,608,608,608,000,000,526,527,481,481,481,481,481,481,482,000,000,000,000,000,000,479,558,559,558,559,558,559
000,000,000,000,000,000,000,000,000,000,558,559,608,608,608,608,608,608,608,000,000,000,000,000,000,479,558,559,558,559,558,559
000,000,000,000,000,000,000,000,000,000,558,559,608,608,608,608,608,608,608,000,000,000,000,000,000,479,556,557,558,559,558,559
000,000,000,000,000,000,000,000,000,000,558,559,608,608,608,608,608,608,608,000,000,000,000,000,000,479,588,589,558,559,558,559
000,000,000,000,608,608,608,000,000,000,558,559,608,608,608,608,608,608,608,000,000,000,000,000,000,475,446,447,558,559,558,559
000,000,000,000,608,608,608,000,000,000,558,559,608,608,608,608,608,608,608,608,000,000,000,000,000,000,000,479,556,557,556,557
000,000,000,000,608,608,608,000,000,000,558,559,608,608,608,608,608,608,608,608,000,000,000,000,000,000,000,479,588,589,588,589
000,000,000,000,608,608,608,000,526,527,558,559,608,608,608,608,608,608,608,608,000,000,000,000,000,000,000,475,446,446,446,446
608,608,608,608,608,608,608,000,558,559,558,559,526,527,000,000,000,000,000,000,000,000,000,000,000,000,000,000,000,000,000,000
608,608,608,608,608,608,608,000,558,559,558,559,558,559,000,000,000,000,000,000,000,000,000,000,000,000,000,000,000,000,000,000
608,608,608,608,608,608,608,000,558,559,558,559,558,559,526,527,000,000,000,000,000,000,000,000,000,000,000,000,000,000,000,000
000,000,000,000,000,000,000,000,558,559,558,559,558,559,558,559,000,000,000,000,000,000,000,000,000,000,000,000,000,000,000,000
000,000,000,000,000,000,000,000,558,559,558,559,558,559,558,559,000,000,000,000,000,000,000,000,000,000,000,000,000,000,000,000
000,000,000,000,000,000,000,000,558,559,558,559,558,559,558,559,000,000,000,000,000,000,000,000,000,000,000,000,000,000,000,000
446,446,446,446,446,446,446,447,558,559,558,559,558,559,558,559,526,527,526,527,526,527,526,527,526,527,526,527,526,527,526,527
