590,591,590,591,590,591,590,591,443,510,510,510,510,510,510,510,444,477,558,559,558,559,558,559,558,559,558,559,558,559,558,559
588,589,588,589,588,589,588,589,479,443,510,510,510,510,510,444,477,477,590,591,590,591,590,591,590,591,590,591,590,591,590,591
443,510,510,510,510,510,510,510,511,479,000,000,000,000,000,477,477,477,588,589,588,589,588,589,588,589,588,589,588,589,588,589
479,443,510,510,510,510,510,510,510,511,000,000,000,000,000,477,477,509,510,510,510,510,510,510,510,510,510,510,510,510,510,444
479,479,000,000,000,000,000,000,000,000,000,000,000,000,000,477,509,510,510,510,510,510,510,510,510,510,510,510,510,510,444,477
479,479,000,538,539,539,539,539,539,539,539,539,539,540,000,509,510,510,510,510,510,510,510,510,510,510,510,510,510,444,477,477
479,479,000,570,000,000,000,000,000,000,000,000,000,572,000,000,000,000,000,000,000,000,000,000,000,000,000,000,000,477,477,477
479,479,000,570,000,000,000,000,000,000,000,000,000,572,000,000,000,000,000,000,000,000,000,000,000,000,000,000,000,477,477,477
479,479,000,570,000,000,000,000,000,000,000,000,000,572,000,000,000,000,000,000,000,000,000,000,000,000,000,000,000,477,477,477
479,479,000,570,000,000,000,000,000,000,000,000,000,572,000,000,000,000,000,000,000,000,000,000,000,000,000,000,000,477,477,477
479,479,000,570,000,000,000,000,000,000,000,000,000,572,000,000,000,000,000,000,000,000,000,000,000,000,000,000,000,477,477,477
479,479,000,570,000,000,000,000,000,000,000,000,000,572,000,000,000,000,000,000,000,000,000,000,000,000,000,000,000,477,477,477
479,479,000,570,000,000,000,000,000,000,000,000,000,572,000,000,000,000,000,000,000,000,000,000,000,000,000,000,000,477,477,477
479,479,000,570,000,000,000,000,000,000,000,000,000,572,000,000,000,000,000,000,000,000,000,000,000,000,000,000,000,477,477,477
479,479,000,570,000,000,000,000,000,000,000,000,000,572,000,000,000,000,000,000,000,000,000,000,000,000,000,000,000,477,477,477
479,479,000,570,000,000,000,000,000,000,000,000,000,572,000,000,000,000,000,000,000,000,000,000,000,000,000,000,000,477,477,477
479,479,000,570,000,000,000,000,000,000,000,000,000,572,000,000,000,000,000,000,000,000,000,000,000,000,000,000,000,477,477,477
479,479,000,570,000,000,000,000,000,000,000,000,000,572,000,000,000,000,000,000,000,000,000,000,000,000,000,000,000,477,477,477
479,479,000,570,000,000,000,000,000,000,000,000,000,572,000,000,000,000,000,000,000,000,000,000,000,000,000,000,000,477,477,477
479,479,000,570,000,000,000,000,000,000,000,000,000,572,000,000,000,000,000,000,000,000,000,000,000,000,000,000,000,477,477,477
479,479,000,570,000,000,000,000,000,000,000,000,000,572,000,000,000,445,446,446,446,446,446,446,446,446,446,446,446,476,477,477
479,479,000,570,000,000,000,000,000,000,000,000,000,572,000,000,000,477,445,446,446,446,446,446,446,446,446,446,446,446,476,477
479,479,000,570,000,000,000,000,000,000,000,000,000,572,000,000,000,477,477,445,446,446,446,446,446,446,446,446,446,446,446,476
479,479,000,570,000,000,000,000,000,000,000,000,000,572,000,000,000,477,477,477,526,527,558,527,526,527,526,559,526,559,526,527
479,479,000,570,000,000,000,000,000,000,000,000,000,572,000,000,000,477,477,477,558,559,558,559,558,559,558,559,558,559,558,559
479,479,000,570,000,000,000,000,000,000,000,000,000,572,000,000,000,477,477,477,558,559,558,559,558,559,558,559,558,559,558,559
479,479,000,570,000,000,000,000,000,000,000,000,000,572,000,000,000,477,477,477,558,559,558,559,558,559,558,559,558,559,558,559
479,479,000,570,000,000,000,000,000,000,000,000,000,572,000,000,000,477,477,477,558,559,558,559,558,559,558,559,558,559,558,559
479,479,000,570,000,000,000,000,000,000,000,000,000,572,000,000,000,477,477,477,558,559,558,559,558,559,558,559,558,559,558,559
479,479,000,602,603,603,603,603,603,603,603,603,603,604,000,000,000,477,477,477,558,559,558,559,558,559,558,559,558,559,558,559
479,479,000,000,000,000,000,000,000,000,000,000,000,000,000,000,000,477,477,477,558,559,558,559,558,559,558,559,558,559,558,559
479,479,000,000,000,000,000,000,000,000,000,000,000,000,000,000,000,477,477,477,558,559,558,559,558,559,558,559,558,559,558,559
