727,728,728,728,728,728,728,728,728,728,728,728,728,728,728,728,728,728,728,728,728,728,728,728,728,729,570,570,570,570,570,570
759,000,000,000,000,000,000,000,000,000,000,000,000,000,000,000,000,000,000,000,000,000,000,000,000,761,570,570,570,570,570,570
759,000,000,000,000,000,000,000,000,000,000,000,000,000,000,000,000,000,000,000,000,000,000,000,000,761,570,570,570,570,570,570
759,000,000,000,000,000,000,000,000,000,000,000,000,000,000,000,000,000,000,000,000,000,000,000,000,761,570,570,570,570,570,570
759,000,000,000,000,000,000,000,000,000,000,000,000,000,000,000,000,000,000,000,000,000,000,000,000,761,570,570,570,570,570,570
759,000,000,000,000,000,000,000,000,000,000,000,000,000,000,000,000,000,000,000,000,000,000,000,000,761,570,570,570,570,570,570
759,000,000,000,000,000,000,000,000,000,000,000,000,000,000,000,000,000,000,000,000,000,000,000,000,761,570,570,570,570,570,570
759,000,000,000,000,000,000,000,000,000,000,000,000,000,000,000,000,000,000,000,000,000,000,000,000,761,570,570,570,570,570,570
759,000,000,000,000,000,000,000,000,000,000,000,000,000,000,000,000,000,000,000,000,000,000,000,000,761,570,570,570,570,570,570
759,000,000,000,000,000,000,000,000,000,000,000,000,000,000,000,000,000,000,000,000,000,000,000,000,761,570,570,570,570,570,570
759,000,000,000,000,000,000,000,000,000,000,000,000,000,000,000,000,000,000,000,000,000,000,000,000,761,570,570,570,570,570,570
759,000,000,000,000,000,000,000,000,000,000,000,000,000,000,000,000,000,000,601,792,792,792,792,792,793,570,570,570,570,570,570
759,000,000,000,000,000,000,000,000,000,000,000,000,000,000,000,000,000,000,761,538,539,539,539,539,539,802,570,570,570,570,570
759,000,000,000,000,000,000,000,000,000,000,000,000,000,000,000,000,000,000,761,570,538,539,539,539,539,539,465,570,570,570,570
568,000,000,000,000,000,000,000,000,000,000,000,000,000,000,000,000,000,000,761,570,570,538,539,539,539,539,539,465,570,570,570
000,000,000,000,000,000,000,000,000,000,000,000,000,000,000,000,000,000,000,761,570,570,570,538,539,539,539,539,539,465,570,570
000,000,000,000,000,000,000,000,000,000,000,000,000,000,000,000,000,000,000,761,570,570,570,570,000,000,000,000,000,000,570,570
000,000,000,000,000,000,000,000,000,000,000,000,000,000,000,000,000,000,000,761,570,570,570,570,000,000,000,000,000,000,570,570
000,000,000,000,000,000,000,000,000,000,000,000,000,000,000,000,000,000,000,761,570,570,570,570,000,000,000,000,000,000,570,602
000,000,000,000,000,000,000,000,000,000,000,000,000,000,000,000,000,000,000,761,570,570,570,570,000,000,000,000,000,000,602,603
000,000,000,000,000,000,000,000,000,000,000,000,000,000,000,000,000,000,000,761,570,570,570,570,000,000,000,000,000,000,000,000
000,000,000,000,000,000,000,000,000,000,000,000,000,000,000,000,000,000,000,761,570,570,570,570,000,000,000,000,000,000,000,000
000,000,000,000,000,000,000,000,000,000,000,000,000,000,000,000,000,000,000,761,570,570,570,570,000,000,000,000,000,000,000,000
000,000,000,000,000,000,000,000,000,000,000,000,000,000,000,000,000,000,000,761,570,570,570,570,000,000,000,000,000,000,000,000
000,000,000,000,000,000,000,000,000,000,000,000,000,000,000,000,000,000,000,761,570,570,570,602,603,603,603,603,603,603,603,603
000,000,000,000,000,000,000,000,000,000,000,000,000,000,000,000,000,000,000,761,570,570,602,603,603,603,603,603,603,603,603,603
000,000,000,000,000,000,000,000,000,000,000,000,000,000,000,000,000,000,000,761,570,602,603,603,603,603,603,603,603,603,603,603
000,000,000,000,000,000,000,000,000,000,000,000,000,000,000,000,000,000,000,761,602,603,603,603,603,603,603,603,603,603,603,603
000,000,000,000,000,000,000,000,000,000,000,000,000,000,000,000,000,000,000,761,530,531,530,531,530,531,530,531,530,531,530,531
000,000,000,000,000,000,000,000,000,000,000,000,000,000,000,000,000,000,000,761,562,563,562,563,562,563,562,563,562,563,562,563
000,000,000,000,000,000,000,000,000,000,000,000,000,000,000,000,000,000,000,761,562,563,562,563,562,563,562,563,562,563,562,563
000,000,000,000,000,000,000,000,000,000,000,000,000,000,000,000,000,000,000,761,562,563,562,563,562,563,562,563,562,563,562,563
