001,001,001,001,001,001,001,001,001,001,001,001,001,001,001,001,001,001,001,001,001,001,001,001,001,001,001,001,001,001,001,001
001,001,001,001,001,001,001,001,001,001,001,001,001,001,001,001,001,001,001,001,001,001,001,001,001,001,001,001,001,001,001,001
001,001,001,001,001,001,001,001,001,001,001,001,001,001,001,001,001,001,001,001,001,001,001,001,001,001,001,001,001,001,001,001
001,001,001,001,001,001,001,001,001,001,001,001,001,001,001,001,001,001,001,001,001,001,001,001,001,001,001,001,001,001,001,001
001,001,001,001,001,001,001,001,001,001,001,001,001,001,001,001,001,001,001,001,001,001,001,001,001,001,001,001,001,001,001,001
001,001,001,001,001,001,001,001,001,001,001,001,001,001,001,001,001,001,001,001,001,001,001,001,001,001,001,001,001,001,001,001
001,001,001,001,001,001,001,001,001,001,001,001,001,001,001,001,001,001,001,001,001,001,001,001,001,001,001,001,001,001,001,001
001,001,001,001,001,001,001,001,001,001,001,001,001,001,001,001,001,001,001,001,001,001,001,001,001,001,001,001,001,001,001,001
001,001,001,001,001,001,001,001,001,001,001,001,001,001,001,001,001,001,001,001,001,001,001,001,001,001,001,001,001,001,001,001
001,001,001,001,001,001,001,001,001,001,001,001,001,001,001,001,001,001,001,001,001,001,001,001,001,001,001,001,001,001,001,001
001,001,001,001,001,001,001,001,001,001,001,001,001,001,001,001,001,001,001,001,001,001,001,001,001,001,001,001,001,001,001,001
001,001,001,001,001,001,001,001,001,001,001,001,001,001,001,001,001,001,001,001,001,001,001,001,001,001,001,001,001,001,001,001
001,001,001,001,001,001,001,001,001,001,001,001,001,001,001,001,001,001,001,001,001,001,001,001,001,001,001,001,001,001,001,001
001,001,001,001,001,001,001,801,801,001,001,001,001,001,001,001,001,001,001,001,001,001,001,001,001,001,001,001,001,001,001,001
001,001,001,001,001,001,571,571,571,571,571,571,571,571,571,001,001,001,001,001,001,001,001,001,001,001,001,001,001,001,571,571
001,001,001,001,001,001,571,571,571,571,571,571,571,571,571,001,001,001,001,001,001,001,001,001,001,001,001,001,001,770,571,571
001,001,001,001,001,001,571,571,571,571,571,571,571,571,571,001,001,001,001,001,001,001,001,001,001,001,001,001,001,770,571,571
001,001,001,001,001,001,571,571,571,571,571,571,571,571,571,001,001,001,001,001,001,001,001,001,001,001,001,001,001,001,571,571
001,001,001,001,001,571,571,571,571,571,571,571,571,571,571,001,001,001,001,001,001,001,001,001,001,001,001,001,001,001,571,571
001,571,571,571,571,571,571,571,571,571,571,571,571,571,571,001,001,001,001,001,001,001,001,001,001,001,001,001,001,001,571,571
001,571,571,571,571,571,571,571,571,571,571,571,571,571,571,001,001,001,001,001,001,001,001,001,001,001,001,001,001,001,571,571
001,571,571,571,571,571,571,571,571,571,571,571,571,571,571,001,001,001,001,001,001,001,001,001,001,001,001,001,001,001,571,571
571,571,571,571,571,571,571,571,571,571,571,571,571,571,571,001,001,001,001,001,001,001,001,001,001,001,001,001,001,001,571,571
571,571,571,571,571,571,571,571,571,571,571,571,571,571,571,001,001,001,001,001,001,001,001,001,001,001,001,001,001,001,571,571
571,571,571,571,571,571,571,571,571,571,571,571,571,571,571,001,001,001,001,001,001,001,001,001,001,001,001,001,001,001,571,571
571,571,571,571,571,571,571,571,571,571,571,571,571,571,571,001,001,001,001,001,001,001,001,001,001,001,001,001,001,001,571,571
571,571,571,571,571,571,571,571,571,571,571,571,571,571,571,571,001,001,001,001,801,801,001,001,001,001,001,001,001,571,571,571
571,571,571,571,571,571,571,571,571,571,571,571,571,571,571,571,571,571,571,571,571,571,571,571,571,571,571,571,571,571,571,571
571,571,571,571,571,571,571,571,571,571,571,571,571,571,571,571,571,571,571,571,571,571,571,571,571,571,571,571,571,571,571,571
571,571,571,571,571,571,571,571,571,571,571,571,571,571,571,571,571,571,571,571,571,571,571,571,571,571,571,571,571,571,571,571
571,571,571,571,571,571,571,571,571,571,571,571,571,571,571,571,571,571,571,571,571,571,571,571,571,571,571,571,571,571,571,571
571,571,571,571,571,571,571,571,571,571,571,571,571,571,571,571,571,571,571,571,571,571,571,571,571,571,571,571,571,571,571,571
