728,728,728,728,728,728,728,728,728,728,728,728,728,728,728,728,728,728,728,729,479,479,558,559,558,559,558,559,558,559,558,559
000,000,000,000,000,000,000,000,000,000,000,000,000,000,000,000,000,000,000,761,479,479,558,559,558,559,558,559,558,559,558,559
000,000,000,000,000,000,000,000,000,000,000,000,000,000,000,000,000,000,000,761,479,479,558,559,558,559,558,559,558,559,558,559
792,792,792,792,792,792,792,792,792,792,792,792,792,792,792,600,000,000,000,761,479,479,558,559,558,559,558,559,558,559,558,559
510,510,510,510,510,510,510,510,510,510,510,510,510,510,444,759,000,000,000,761,479,479,558,559,558,559,558,559,558,559,558,559
526,527,526,527,526,527,526,527,526,527,526,527,526,527,477,759,000,000,000,761,479,479,558,559,558,559,558,559,558,559,558,559
558,559,558,559,558,559,558,559,558,559,558,559,558,559,477,759,000,000,000,761,479,479,558,559,558,559,558,559,558,559,558,559
558,559,558,559,558,559,558,559,558,559,558,559,558,559,477,759,000,000,000,761,479,479,558,559,558,559,558,559,558,559,558,559
558,559,558,559,558,559,558,559,558,559,558,559,558,559,477,759,000,000,000,761,479,479,558,559,558,559,558,559,558,559,558,559
558,559,558,559,558,559,558,559,558,559,558,559,558,559,477,759,000,000,000,761,479,479,558,559,558,559,558,559,558,559,558,559
558,559,558,559,558,559,558,559,558,559,558,559,558,559,477,759,000,000,000,761,479,479,558,559,558,559,558,559,558,559,558,559
558,559,558,559,558,559,558,559,558,559,558,559,558,559,477,759,000,000,000,761,479,479,558,559,558,559,558,559,558,559,558,559
558,559,558,559,558,559,558,559,558,559,558,559,558,559,477,759,000,000,000,761,479,479,558,559,558,559,558,559,558,559,558,559
558,559,558,559,558,559,558,559,558,559,558,559,558,559,477,759,000,000,000,761,479,479,558,559,558,559,558,559,558,559,558,559
558,559,558,559,558,559,558,559,558,559,558,559,558,559,477,759,000,000,000,761,479,479,558,559,558,559,558,559,558,559,558,559
558,559,558,559,558,559,558,559,558,559,558,559,558,559,477,759,000,000,000,761,479,479,558,559,558,559,558,559,558,559,558,559
558,559,558,559,558,559,558,559,558,559,558,559,558,559,477,759,000,000,000,761,479,479,558,559,558,559,558,559,558,559,558,559
558,559,558,559,558,559,558,559,558,559,558,559,558,559,477,759,000,000,000,761,479,479,558,559,558,559,558,559,558,559,558,559
558,559,558,559,558,559,558,559,558,559,558,559,558,559,477,759,000,000,000,761,479,479,558,559,558,559,558,559,558,559,558,559
558,559,558,559,558,559,558,559,558,559,558,559,558,559,477,759,000,000,000,761,479,479,558,559,558,559,558,559,558,559,558,559
558,559,558,559,558,559,558,559,558,559,558,559,558,559,477,759,000,000,000,761,479,479,558,559,558,559,558,559,558,559,558,559
558,559,558,559,558,559,558,559,558,559,558,559,558,559,477,759,000,000,000,761,479,479,558,559,558,559,558,559,558,559,558,559
558,559,558,559,558,559,558,559,558,559,558,559,558,559,477,759,000,000,000,761,479,479,558,559,558,559,558,559,558,559,558,559
558,559,558,559,558,559,558,559,558,559,558,559,558,559,477,759,000,000,000,761,479,479,558,559,558,559,558,559,558,559,558,559
590,591,590,591,590,591,590,591,590,591,590,591,590,591,477,759,000,000,000,761,479,479,558,559,558,559,558,559,558,559,558,559
588,589,588,589,588,589,588,589,588,589,588,589,588,589,477,759,000,000,000,761,479,479,558,559,558,559,558,559,558,559,558,559
446,446,446,446,446,446,446,446,446,446,446,446,446,446,476,759,000,000,000,761,479,479,558,559,558,559,558,559,558,559,558,559
728,728,728,728,728,728,728,728,728,728,728,728,728,728,728,568,000,000,000,761,479,479,558,559,558,559,558,559,558,559,558,559
000,000,000,000,000,000,000,000,000,000,000,000,000,000,000,000,000,000,000,761,479,479,558,559,558,559,558,559,558,559,558,559
000,000,000,000,000,000,000,000,000,000,000,000,000,000,000,000,000,000,000,761,479,479,558,559,558,559,558,559,558,559,558,559
000,000,000,000,000,000,000,000,000,000,000,000,000,000,000,000,000,000,000,761,479,479,558,559,558,559,558,559,558,559,558,559
792,792,792,792,792,792,792,792,792,792,792,792,792,792,792,792,792,792,792,793,479,479,558,559,558,559,558,559,558,559,558,559
