000,000,000,000,000,000,000,000,000,000,851,852,853,854,855,856,857,858,859,860,861,862,000,000,000,000,000,000,000,000,000,000
000,000,000,000,000,000,000,000,000,000,883,884,885,886,887,888,889,890,891,892,893,894,000,000,000,000,000,000,000,000,000,000
000,000,000,000,000,000,000,000,000,000,915,916,917,918,919,920,921,922,923,924,925,926,000,000,000,000,000,000,000,000,000,000
000,000,964,965,966,967,000,000,000,000,000,000,000,000,951,952,953,954,000,000,000,000,000,000,000,000,964,965,966,967,000,000
000,000,996,997,998,999,000,000,000,000,000,000,000,000,000,000,000,000,000,000,000,000,000,000,000,000,996,997,998,999,000,000
000,000,000,000,000,000,000,000,000,000,000,000,000,000,000,000,000,000,000,000,000,000,000,000,000,000,000,000,000,000,000,000
000,000,000,000,000,000,000,000,000,000,000,000,000,000,000,000,000,000,000,000,000,000,000,000,000,000,000,000,000,000,000,000
000,000,000,000,000,000,000,000,000,000,000,000,000,000,000,000,000,000,000,000,000,000,000,000,000,000,000,000,000,000,000,000
000,000,000,000,000,000,000,000,000,000,000,528,529,528,529,528,529,528,529,528,529,000,000,000,000,000,000,000,000,000,000,000
000,000,000,000,000,000,000,000,000,000,000,000,000,000,000,000,000,000,000,000,000,000,000,000,000,000,000,000,000,000,000,000
000,000,528,529,964,965,966,967,000,000,000,000,000,000,000,000,000,000,000,000,000,000,000,000,964,965,966,967,528,529,000,000
000,000,000,000,996,997,998,999,000,000,528,529,000,000,000,000,848,849,850,000,528,529,000,000,996,997,998,999,000,000,000,000
000,000,000,000,000,000,000,000,000,000,000,000,000,877,878,879,880,881,882,000,000,000,000,000,000,000,000,000,000,000,000,000
000,000,000,000,000,000,000,000,000,000,000,000,000,909,910,911,912,913,914,000,000,000,000,000,000,000,000,000,000,000,000,000
000,000,000,000,000,000,000,000,000,000,000,000,000,000,000,000,000,000,000,000,000,000,000,000,000,000,000,000,000,000,000,000
000,000,000,000,000,000,000,000,000,000,000,000,000,000,000,000,000,000,000,000,000,000,000,000,000,000,000,000,000,000,000,000
000,000,528,529,000,000,000,000,528,529,000,000,000,000,000,000,000,000,000,000,000,000,528,529,000,000,000,000,528,529,000,000
000,000,000,000,000,000,000,000,000,000,000,000,000,000,000,000,000,000,000,000,000,000,000,000,000,000,000,000,000,000,000,000
000,000,000,000,000,000,000,000,000,000,000,000,000,000,000,000,000,000,000,000,000,000,000,000,000,000,000,000,000,000,000,000
000,000,000,528,529,000,000,000,528,529,528,529,528,529,528,529,528,529,528,529,528,529,528,529,000,000,000,528,529,000,000,000
000,000,000,000,000,000,000,000,000,000,000,000,000,000,000,000,000,000,000,000,000,000,000,000,000,000,000,000,000,000,000,000
000,000,000,000,000,000,000,000,000,000,000,000,000,000,000,000,000,000,000,000,000,000,000,000,000,000,000,000,000,000,000,000
000,000,000,000,000,000,000,000,000,000,000,000,000,000,000,000,000,000,000,000,000,000,000,000,000,000,000,000,000,000,000,000
000,000,000,000,000,000,000,000,000,000,000,000,000,000,000,000,000,000,000,000,000,000,000,000,000,000,000,000,000,000,000,000
000,000,000,000,000,000,000,000,000,000,000,000,000,000,000,000,000,000,000,000,000,000,000,000,000,000,000,000,000,000,000,000
000,000,000,000,000,000,000,000,000,000,000,000,000,000,000,000,000,000,000,000,000,000,000,000,000,000,000,000,000,000,000,000
000,000,000,000,000,000,000,000,000,000,000,000,000,000,000,000,000,000,000,000,000,000,000,000,000,000,000,000,000,000,000,000
000,000,000,000,000,000,000,000,000,000,000,000,000,000,000,000,000,000,000,000,000,000,000,000,000,000,000,000,000,000,000,000
000,000,000,000,000,000,000,000,000,000,000,000,000,000,000,000,000,000,000,000,000,000,000,000,000,000,000,000,000,000,000,000
000,000,000,000,000,000,000,000,000,000,000,000,000,000,000,000,000,000,000,000,000,000,000,000,000,000,000,000,000,000,000,000
524,525,524,525,524,525,524,525,524,525,524,525,524,525,524,525,524,525,524,525,524,525,524,525,524,525,524,525,524,525,524,525
000,000,000,000,000,000,000,000,000,000,000,000,000,000,000,000,000,000,000,000,000,000,000,000,000,000,000,000,000,000,000,000
