000,000,000,000,000,000,000,000,000,000,000,000,000,000,572,000,572,800,801,801,801,801,801,801,801,801,801,801,801,801,801,801
539,539,539,539,539,539,539,540,000,000,000,000,000,000,572,000,572,000,000,000,000,000,000,000,538,539,539,539,539,539,539,540
000,000,000,000,000,000,000,572,000,000,000,000,000,000,572,000,572,000,000,000,000,000,000,000,570,538,539,539,539,539,540,572
000,000,000,000,000,000,000,572,000,000,000,000,000,000,572,000,463,539,539,539,539,539,540,000,570,570,000,000,000,000,572,572
000,000,000,000,000,000,000,572,000,000,000,000,000,000,572,000,000,000,000,000,000,000,572,000,570,570,000,000,000,000,572,572
000,000,000,000,000,000,000,572,000,000,000,000,000,000,572,000,000,000,000,000,000,000,572,000,570,570,000,000,000,000,572,572
000,000,000,000,000,000,000,572,000,000,000,000,000,000,572,000,000,000,000,000,000,000,572,000,570,570,000,000,000,000,572,572
000,000,000,000,000,000,000,572,000,000,000,000,000,000,572,000,000,000,000,000,000,000,572,000,570,570,000,000,000,000,572,572
000,000,000,000,000,000,000,572,000,000,000,000,000,000,572,000,000,000,000,000,000,000,572,000,570,570,000,000,000,000,572,572
000,000,000,000,000,000,000,572,000,000,000,000,000,000,572,000,000,000,000,000,000,000,572,000,570,602,603,603,603,603,604,572
000,000,000,000,000,000,000,572,000,000,000,000,000,000,572,000,000,000,000,000,000,000,572,000,602,603,603,603,603,603,603,604
000,000,000,000,000,000,000,572,000,000,000,000,000,000,572,000,000,000,000,000,000,000,463,539,539,539,539,539,539,539,539,539
000,000,000,000,000,000,000,572,000,000,000,000,000,000,463,539,539,539,539,539,539,539,539,539,539,539,539,539,539,539,539,539
000,000,000,000,000,000,000,572,000,000,000,000,000,000,000,000,000,000,000,000,000,000,000,000,000,000,000,000,000,000,000,000
000,000,000,000,000,000,000,572,000,000,000,000,000,000,000,000,000,000,000,000,000,000,000,000,000,000,000,000,000,000,000,000
000,000,000,000,000,000,000,572,000,000,000,000,000,000,538,539,539,539,539,539,539,539,539,539,539,539,539,540,000,000,469,603
603,603,603,603,603,603,603,604,000,000,000,000,000,000,570,538,539,539,539,539,539,539,539,539,539,540,000,572,000,000,572,469
000,000,000,000,000,000,000,000,000,000,000,000,000,000,570,570,000,000,000,000,000,000,000,000,000,572,000,572,000,000,572,572
000,000,000,000,000,000,000,000,000,000,000,000,000,000,570,570,000,000,000,000,000,000,000,000,000,572,000,572,000,000,572,572
603,603,603,603,603,603,603,603,603,603,603,603,471,000,570,570,000,000,000,000,000,000,000,000,000,572,000,572,000,000,572,572
603,603,603,603,603,603,603,603,603,603,603,471,570,000,570,570,000,000,000,000,000,000,000,000,000,572,000,572,000,000,572,572
603,603,603,603,603,603,603,603,603,603,471,570,570,000,570,570,000,000,000,000,000,000,000,000,000,572,000,572,000,000,572,572
603,603,603,603,603,603,603,603,603,471,570,570,570,000,570,570,000,000,000,000,000,000,000,000,000,572,000,572,000,000,572,572
603,603,603,603,603,603,603,603,471,570,570,570,570,000,570,570,000,000,000,000,000,000,000,000,000,572,000,572,000,000,572,572
737,737,737,737,737,737,737,738,570,570,570,570,570,000,570,570,000,000,000,000,000,000,000,000,000,572,000,572,000,000,572,572
728,728,728,728,728,728,729,570,570,570,570,570,570,000,570,570,000,000,000,000,000,000,000,000,000,572,000,572,000,000,572,572
000,000,000,000,000,000,761,570,570,570,570,570,570,000,570,570,000,000,000,000,000,000,000,000,000,572,000,572,000,000,572,572
000,000,000,000,000,000,761,570,570,570,570,570,570,000,570,570,000,000,000,000,000,000,000,000,000,572,000,572,000,000,572,572
000,000,000,000,000,000,761,570,570,570,570,570,570,000,570,570,000,000,000,000,000,000,000,000,000,572,000,572,000,000,572,572
000,000,000,000,000,000,761,570,570,570,570,570,570,000,570,570,000,000,000,000,000,000,000,000,000,572,000,572,000,000,572,572
000,000,000,000,000,000,761,570,570,570,570,570,570,000,570,570,000,000,000,000,000,000,000,000,000,572,000,572,000,000,572,572
792,792,600,000,000,000,761,570,570,570,570,570,570,000,570,570,000,000,000,000,000,000,000,000,000,572,000,572,000,000,572,572
