001,001,001,001,001,001,001,001,001,001,001,001,224,224,224,224,224,224,224,224,224,224,224,224,224,224,224,224,224,224,001,001
001,001,001,001,001,001,001,001,001,001,001,001,224,224,224,224,224,224,224,224,224,224,224,224,224,224,224,224,224,224,001,001
001,001,001,001,001,001,001,001,001,001,001,001,224,224,224,224,224,224,224,224,224,224,224,224,224,224,224,224,224,224,001,001
001,001,001,001,001,001,001,001,001,001,001,001,224,224,224,224,224,224,224,224,224,224,224,224,224,224,224,224,224,224,001,001
001,001,001,001,001,001,001,001,001,001,001,001,224,224,224,224,224,224,224,224,224,224,224,224,224,224,224,224,224,224,001,001
001,001,001,001,001,001,001,001,001,001,001,001,224,224,224,224,224,224,224,224,224,224,224,224,224,224,224,224,224,224,001,001
001,001,001,001,001,001,001,001,001,001,001,001,224,224,224,224,224,224,224,224,224,224,224,224,224,224,224,224,224,224,001,001
001,001,001,001,001,001,001,001,001,001,001,001,224,224,224,224,224,224,224,224,224,224,224,224,224,224,224,224,224,224,001,001
001,001,001,001,001,001,001,001,001,001,001,001,224,224,224,224,224,224,224,224,224,224,224,224,224,224,224,224,224,224,001,001
001,001,001,001,001,001,001,001,001,001,001,001,224,224,224,224,224,224,224,224,224,224,224,224,224,224,224,224,224,224,001,001
001,001,001,001,001,001,001,001,001,001,001,001,224,224,224,224,224,224,224,224,224,224,224,224,224,224,224,224,224,224,001,001
001,001,001,001,001,001,001,001,001,001,001,001,224,224,224,224,224,224,224,224,224,224,224,224,224,224,224,224,224,224,001,001
001,001,001,001,001,001,001,001,001,001,001,001,224,224,224,224,224,224,224,224,224,224,224,224,224,224,224,224,224,224,001,001
001,001,001,001,001,001,001,001,001,001,001,001,224,224,224,224,224,224,224,224,224,224,224,224,224,224,224,224,224,224,001,001
001,001,001,001,001,001,001,001,001,001,001,001,224,224,224,224,224,224,224,224,224,224,224,224,224,224,224,224,224,224,001,001
001,001,001,001,001,001,001,001,001,001,001,001,224,224,224,224,224,224,224,224,224,224,224,224,224,224,224,224,224,224,001,001
001,001,001,001,001,001,001,001,001,001,001,001,224,224,224,224,224,224,224,224,224,224,224,224,224,224,224,224,224,224,001,001
001,001,001,001,001,001,001,001,001,001,001,001,224,224,224,224,224,224,224,224,224,224,224,224,224,224,224,224,224,224,001,001
001,001,001,001,001,001,224,224,224,224,224,224,224,224,224,224,224,224,224,224,224,224,224,224,224,224,224,224,224,224,001,001
001,001,001,001,001,001,224,224,224,224,224,224,224,224,224,224,224,224,224,224,224,224,224,224,224,224,224,224,224,224,001,001
001,001,001,001,001,001,224,224,224,224,224,224,224,224,224,224,224,224,224,224,224,224,224,224,224,224,224,224,001,001,001,001
001,001,001,001,001,001,224,224,224,224,224,224,224,224,224,224,224,224,224,224,224,224,224,224,224,224,224,224,001,001,001,001
001,001,001,001,001,001,224,224,224,224,224,224,224,224,224,224,224,224,224,224,224,224,224,224,224,224,224,224,001,001,001,001
001,001,001,001,001,001,224,224,224,224,224,224,224,224,224,224,224,224,224,224,224,224,224,224,224,224,224,224,001,001,001,001
001,001,001,001,001,001,224,224,224,224,224,224,224,224,224,224,224,224,224,224,224,224,224,224,224,224,224,224,001,001,001,001
001,001,001,001,001,001,224,224,224,224,224,224,224,224,224,224,224,224,224,224,224,224,224,224,224,224,224,224,001,001,001,001
001,001,001,001,001,001,224,224,224,224,224,224,224,224,224,224,224,224,224,224,224,224,224,224,224,224,224,224,001,001,001,001
001,001,001,001,001,001,224,224,224,224,224,224,224,224,224,224,224,224,224,224,224,224,224,224,224,224,224,224,001,001,001,001
001,001,001,001,001,001,224,224,224,224,224,224,224,224,224,224,224,224,224,224,224,224,224,224,224,224,224,224,001,001,001,001
001,001,001,001,001,001,224,224,224,224,224,224,224,224,224,224,224,224,224,224,224,224,224,224,224,224,224,224,001,001,001,001
001,001,001,001,001,001,224,224,224,224,224,224,224,224,224,224,224,224,224,224,224,224,224,224,224,224,224,224,001,001,001,001
001,001,001,001,001,001,224,224,224,224,224,224,224,224,224,224,224,224,224,224,224,224,224,224,224,224,224,224,001,001,001,001
