000,000,000,000,000,000,000,000,000,000,000,000,000,000,000,000,000,000,000,761,558,559,558,559,558,559,558,559,558,559,558,559
000,000,000,000,000,000,000,000,000,000,000,000,000,000,000,000,000,000,000,761,558,559,558,559,558,559,558,559,558,559,558,559
000,000,000,000,000,000,000,000,000,000,000,000,000,000,000,000,000,000,000,761,558,559,558,559,558,559,558,559,558,559,558,559
000,000,000,000,000,000,000,000,000,000,000,000,000,000,000,000,000,000,000,761,558,559,558,559,558,559,558,559,558,559,558,559
000,000,000,000,000,000,000,000,000,000,000,000,000,000,000,000,000,000,000,761,558,559,558,559,558,559,558,559,558,559,558,559
000,000,000,000,000,000,000,000,000,000,000,000,000,000,000,000,000,000,000,761,558,559,558,559,558,559,558,559,558,559,558,559
000,000,000,000,000,000,000,000,000,000,000,000,000,000,000,000,000,000,000,761,558,559,558,559,558,559,558,559,558,559,558,559
000,000,000,000,000,000,000,000,000,000,000,000,000,000,000,000,000,000,000,761,558,559,558,559,558,559,558,559,558,559,558,559
000,000,000,000,000,000,000,000,000,000,000,000,000,000,000,000,000,000,000,761,558,559,558,559,558,559,558,559,558,559,558,559
000,000,000,000,000,000,000,000,000,000,000,000,000,000,000,000,000,000,000,761,558,559,558,559,558,559,558,559,558,559,558,559
000,000,000,000,000,000,000,000,000,000,000,000,000,000,000,000,000,000,000,761,558,559,558,559,558,559,558,559,558,559,558,559
000,000,000,000,000,000,000,000,000,000,000,000,000,000,000,000,000,000,000,761,558,559,558,559,558,559,558,559,558,559,558,559
000,000,000,000,000,000,000,000,000,000,000,000,000,000,000,000,000,000,000,761,558,559,558,559,558,559,558,559,558,559,558,559
000,000,000,000,000,000,000,000,000,000,000,000,000,000,000,000,000,000,000,761,558,559,558,559,558,559,558,559,558,559,558,559
000,000,000,000,000,000,000,000,000,000,000,000,000,000,000,000,000,000,000,761,558,559,558,559,558,559,558,559,558,559,558,559
000,000,000,000,000,000,000,000,000,000,000,000,000,000,000,000,000,000,000,761,558,559,558,559,558,559,558,559,558,559,558,559
000,000,000,000,000,000,000,000,000,000,000,000,000,000,000,000,000,000,000,761,558,559,558,559,558,559,558,559,558,559,558,559
000,000,000,000,000,000,000,000,000,000,000,000,000,000,000,000,000,000,000,761,590,591,558,559,558,559,558,559,558,559,558,559
000,000,000,000,000,000,000,000,000,000,000,000,000,000,000,000,000,000,000,761,588,589,558,559,558,559,558,559,558,559,558,559
000,000,000,000,000,000,000,000,000,000,000,000,000,000,000,000,000,000,000,569,728,729,558,559,558,559,558,559,558,559,558,559
000,000,000,000,000,000,000,000,000,000,000,000,000,000,000,000,000,000,000,000,000,761,558,559,558,559,558,559,558,559,558,559
000,000,000,000,000,000,000,000,000,000,000,000,000,000,000,000,000,000,000,000,000,761,558,559,558,559,558,559,558,559,558,559
000,000,000,000,000,000,000,000,000,000,000,000,000,000,000,000,000,000,000,000,000,761,558,559,558,559,558,559,558,559,558,559
000,000,000,000,000,000,000,000,000,000,000,000,000,000,000,000,000,000,000,000,000,761,558,559,558,559,558,559,558,559,558,559
000,000,000,000,000,000,000,000,000,000,000,000,000,000,000,000,000,000,000,000,000,761,558,559,558,559,558,559,558,559,558,559
000,000,000,000,000,000,000,000,000,000,000,000,000,000,000,000,000,000,000,000,000,761,558,559,558,559,558,559,558,559,558,559
000,000,000,000,000,000,000,000,000,000,000,000,000,000,000,000,000,000,000,000,000,761,558,559,558,559,558,559,558,559,558,559
000,000,000,000,000,000,000,000,000,000,000,000,000,000,000,000,000,000,000,000,000,761,558,559,558,559,558,559,558,559,558,559
000,000,000,000,000,000,000,000,000,000,000,000,000,000,000,000,000,000,000,000,000,761,558,559,558,559,558,559,558,559,558,559
000,000,000,000,000,000,000,000,000,000,000,000,000,000,000,000,000,000,000,000,000,761,558,559,558,559,558,559,558,559,558,559
000,000,000,000,000,000,000,000,000,000,000,000,000,000,000,000,000,000,000,000,000,761,558,559,558,559,558,559,558,559,558,559
000,000,000,000,000,000,000,000,000,000,000,000,000,000,000,000,000,000,000,000,000,761,558,559,558,559,558,559,558,559,558,559
