558,559,558,559,558,559,558,559,558,559,558,559,558,559,558,559,558,559,558,559,558,559,590,591,590,591,590,591,590,591,558,559
558,559,590,591,590,591,590,591,590,591,590,591,590,591,590,591,558,559,558,559,558,559,588,589,588,589,588,589,588,589,558,559
558,559,588,589,588,589,588,589,588,589,588,589,588,589,588,589,558,559,558,559,558,559,608,608,608,608,608,608,608,608,558,559
558,559,000,000,000,000,000,000,000,000,000,000,000,000,000,000,590,591,590,591,590,591,608,608,608,608,608,608,608,608,558,559
558,559,608,608,608,000,000,000,000,000,000,000,000,000,000,000,588,589,588,589,588,589,608,608,608,608,608,608,608,608,558,559
558,559,608,608,608,000,000,000,000,000,000,000,000,000,000,000,000,000,000,000,000,000,556,557,608,608,608,608,608,608,558,559
558,559,608,608,608,000,000,000,000,000,000,000,000,000,000,000,000,000,000,000,000,000,588,589,608,608,608,608,608,608,558,559
590,591,608,608,608,556,557,000,000,000,000,000,000,000,000,000,000,000,000,000,000,000,000,000,608,608,608,608,608,608,558,559
588,589,608,608,608,588,589,000,000,000,000,000,000,000,000,000,000,000,000,000,000,000,000,000,608,608,608,608,608,608,558,559
000,000,000,000,000,000,000,000,000,000,000,000,000,000,000,000,000,000,000,000,000,000,000,000,608,608,608,608,608,608,558,559
000,000,000,000,000,000,000,000,000,000,556,557,000,000,000,000,000,000,000,000,000,000,000,000,608,608,608,608,608,608,558,559
000,000,000,000,000,000,000,000,000,000,588,589,480,481,481,481,481,482,000,000,000,000,000,000,608,608,608,608,608,608,556,557
000,000,000,000,000,000,000,000,000,000,000,000,608,608,608,608,608,608,000,000,000,000,000,556,557,608,608,608,608,608,588,589
000,000,000,000,000,000,000,000,000,000,000,000,608,608,608,608,608,608,000,000,000,000,000,588,589,445,446,446,446,446,000,000
000,000,000,000,000,000,000,000,000,000,000,000,608,608,608,608,608,608,000,000,000,000,000,000,000,724,000,000,000,000,558,559
526,527,526,527,556,557,556,557,556,557,556,557,556,557,556,557,556,557,000,000,000,000,000,000,000,756,000,000,000,000,558,559
558,559,590,591,588,589,588,589,588,589,588,589,588,589,588,589,588,589,480,481,482,000,000,000,000,788,000,000,000,000,558,559
558,559,588,589,000,000,000,000,000,000,000,000,000,000,000,608,608,608,608,608,608,000,000,526,527,477,526,527,526,527,558,559
558,559,000,000,000,000,000,000,000,000,000,000,000,000,000,608,608,608,608,608,608,000,000,558,559,477,558,559,558,559,558,559
558,559,000,000,000,000,000,000,000,000,000,000,000,000,000,608,608,608,608,608,608,000,000,558,559,477,558,559,558,559,558,559
558,559,000,000,000,000,000,000,000,000,000,000,000,000,000,556,557,556,557,556,557,556,557,590,591,477,590,591,590,591,590,591
558,559,000,000,000,000,000,000,000,000,000,000,000,000,000,588,589,588,589,588,589,588,589,588,589,477,588,589,588,589,588,589
558,559,000,000,000,000,000,000,000,000,000,000,000,000,000,000,000,000,000,000,000,000,000,000,000,477,000,000,000,000,000,000
558,559,000,000,000,000,000,000,000,000,000,000,000,000,000,000,000,000,000,000,000,000,000,000,000,477,000,000,000,000,000,000
558,559,000,000,000,000,000,000,000,000,000,000,000,000,000,000,000,000,000,000,000,000,000,000,000,477,000,000,000,000,000,000
558,559,538,539,539,539,539,539,540,000,000,000,000,000,000,000,000,000,000,000,000,000,000,000,000,724,000,000,000,000,000,000
558,559,570,000,000,000,000,000,724,608,608,608,608,000,000,000,000,000,000,000,000,000,000,000,000,756,000,000,000,000,000,000
558,559,570,000,000,000,000,000,756,608,608,608,608,000,000,000,000,000,000,000,000,000,000,000,000,788,000,000,000,000,000,000
558,559,570,000,000,000,000,000,788,608,608,608,608,000,000,000,000,000,000,000,000,000,000,000,000,477,000,000,000,000,000,000
558,559,570,538,539,539,539,540,572,526,527,526,527,526,527,526,527,526,527,526,527,526,527,526,527,477,526,527,526,527,526,527
558,559,570,570,000,000,000,572,572,558,559,558,559,558,559,558,559,558,559,558,559,558,559,558,559,477,558,559,558,559,558,559
558,559,570,570,000,000,000,572,572,590,591,590,591,590,591,590,591,590,591,590,591,590,591,590,591,477,558,559,558,559,558,559
