475,446,446,446,446,446,446,446,446,446,446,446,446,446,446,446,446,446,446,447,443,510,510,510,510,510,510,510,510,510,510,510
000,000,000,000,000,000,000,000,000,000,000,000,000,000,000,000,000,000,000,479,479,000,000,000,000,000,000,000,000,000,000,000
000,000,000,000,000,000,000,000,000,000,000,000,000,000,000,000,000,000,000,479,479,000,000,000,000,000,000,000,000,000,000,000
000,000,727,728,728,728,728,728,728,728,728,728,728,728,728,728,729,000,000,479,479,000,000,000,000,000,000,000,000,000,000,000
000,000,759,000,000,000,000,601,792,792,792,600,000,000,000,000,761,000,000,479,479,000,000,000,000,000,000,608,608,000,000,000
000,000,759,000,000,000,000,761,608,608,608,759,000,000,000,000,761,000,000,479,479,000,000,000,000,000,608,608,608,608,000,000
000,000,759,000,000,000,000,761,608,000,608,759,000,000,000,000,761,000,000,479,479,000,000,000,538,539,539,539,539,539,540,000
000,000,759,000,000,000,000,761,608,608,608,759,000,000,000,000,761,000,000,479,479,000,000,000,570,571,571,571,571,571,572,000
000,000,759,000,000,000,000,569,728,728,728,568,000,000,000,000,761,000,000,479,479,000,000,000,570,571,571,571,571,571,572,000
000,000,759,000,000,000,000,000,000,000,000,000,000,000,000,000,761,000,000,479,479,000,000,000,570,571,571,571,571,571,572,000
000,000,791,792,792,792,792,792,792,792,792,792,792,792,792,792,793,000,000,479,479,000,000,000,570,571,571,571,571,571,572,000
000,000,000,000,000,000,000,000,000,000,000,000,000,000,000,000,000,000,000,479,479,000,000,000,570,571,571,571,571,571,572,000
000,000,000,000,000,000,000,000,730,731,732,000,000,000,000,000,000,000,000,479,479,000,000,000,570,571,571,571,571,571,572,000
000,000,000,000,000,000,000,000,000,000,000,000,443,510,510,510,510,510,510,511,479,000,000,000,570,571,571,571,571,571,572,000
000,000,608,608,608,608,608,000,000,000,000,000,479,443,510,510,510,510,510,510,511,000,000,000,570,571,571,571,571,571,572,000
000,000,608,608,608,608,608,000,000,000,000,000,479,479,000,000,000,608,608,608,000,000,000,000,602,603,603,603,603,603,604,000
000,000,000,000,608,608,608,000,000,000,000,000,479,479,000,000,000,608,608,608,000,000,000,000,000,608,608,608,608,608,000,000
000,000,556,557,608,608,608,000,556,557,000,000,479,479,000,000,000,608,608,608,000,000,000,000,000,608,608,608,608,608,000,000
000,000,588,589,608,608,608,000,588,589,608,608,479,479,000,000,000,000,000,000,000,000,000,000,000,608,608,608,608,608,000,000
000,000,000,000,608,608,608,000,000,000,608,608,479,479,000,000,000,000,000,000,000,000,000,000,000,000,000,000,000,000,000,000
000,000,000,000,608,608,608,000,000,000,608,608,479,479,000,000,000,000,000,000,000,000,000,000,000,000,000,000,000,000,000,000
000,000,000,000,608,608,608,000,000,000,608,608,479,479,000,000,000,000,000,000,000,000,000,000,000,000,000,000,000,000,000,000
000,000,000,000,608,608,000,000,000,000,000,000,725,725,000,000,000,000,608,608,608,608,608,000,000,000,000,000,000,000,000,000
000,000,000,000,000,000,000,000,000,000,000,000,757,757,000,000,000,000,608,608,608,608,608,608,608,608,608,608,608,608,000,000
000,000,000,000,000,000,556,557,000,000,000,000,789,789,000,000,000,000,608,608,608,608,608,608,608,608,608,608,608,608,000,000
000,000,000,000,000,000,588,589,000,000,000,000,479,479,000,000,000,000,538,539,539,539,540,608,608,608,608,608,608,608,000,000
000,000,000,000,000,000,000,000,000,000,608,608,479,479,000,000,000,000,570,571,571,571,572,608,608,608,608,608,608,608,000,000
000,000,000,556,557,000,000,000,556,557,608,608,479,479,608,608,608,608,570,571,571,571,572,608,608,608,608,608,608,608,000,000
000,000,000,588,589,608,608,608,588,589,608,608,479,479,608,608,608,608,570,571,571,571,572,608,608,608,608,608,608,608,000,000
000,608,608,608,608,608,608,608,608,000,000,000,479,479,608,608,608,608,602,603,603,603,604,608,608,608,608,608,608,608,000,000
000,000,000,608,608,608,608,608,608,000,000,000,479,479,608,608,608,608,000,000,000,608,608,608,608,608,608,608,608,608,000,000
443,510,510,510,510,510,510,510,510,510,510,510,511,475,446,446,446,446,446,446,446,446,446,446,446,446,446,446,446,446,446,446
